Library\Bee\artifacts\mvdfrm\Unity.Mathematics.ref.dll_1DE51DC70DF97883.mvfrm
Library\Bee\artifacts\mvdfrm\UnityEngine.UI.ref.dll_F37DC0DEF554539B.mvfrm
Library\Bee\artifacts\mvdfrm\Unity.Burst.Cecil.dll_723ED5C9EE0273BD.mvfrm
Library\Bee\artifacts\mvdfrm\Unity.Burst.Cecil.Mdb.dll_CC52350503903E3A.mvfrm
Library\Bee\artifacts\mvdfrm\Unity.Burst.Cecil.Pdb.dll_E3A4AD7482453FBD.mvfrm
Library\Bee\artifacts\mvdfrm\Unity.Burst.Cecil.Rocks.dll_D15615DB80C8C97D.mvfrm
Library\Bee\artifacts\mvdfrm\Unity.Burst.Unsafe.dll_0A8119FE3BF0C8C6.mvfrm
Library\Bee\artifacts\mvdfrm\Unity.VisualScripting.Antlr3.Runtime.dll_E35B068FDF6CA9F8.mvfrm
Library\Bee\artifacts\mvdfrm\UnityEngine.AccessibilityModule.dll_965FA752215B619B.mvfrm
Library\Bee\artifacts\mvdfrm\UnityEngine.AIModule.dll_F6EEBB02FE3E9BEF.mvfrm
Library\Bee\artifacts\mvdfrm\UnityEngine.AndroidJNIModule.dll_79DAA3042314592D.mvfrm
Library\Bee\artifacts\mvdfrm\UnityEngine.AnimationModule.dll_C1A0304B2011E181.mvfrm
Library\Bee\artifacts\mvdfrm\UnityEngine.AssetBundleModule.dll_8AC53A41418CA2CF.mvfrm
Library\Bee\artifacts\mvdfrm\UnityEngine.AudioModule.dll_7832558FD5797A33.mvfrm
Library\Bee\artifacts\mvdfrm\UnityEngine.ClothModule.dll_DF1AB28AAF965917.mvfrm
Library\Bee\artifacts\mvdfrm\UnityEngine.ClusterInputModule.dll_19A426A0087E5DF7.mvfrm
Library\Bee\artifacts\mvdfrm\UnityEngine.ClusterRendererModule.dll_0588186A2D98EA3A.mvfrm
Library\Bee\artifacts\mvdfrm\UnityEngine.CoreModule.dll_112E79F9828ACA26.mvfrm
Library\Bee\artifacts\mvdfrm\UnityEngine.CrashReportingModule.dll_07275CC6F24A317E.mvfrm
Library\Bee\artifacts\mvdfrm\UnityEngine.DirectorModule.dll_BBD7D0712BCF71C3.mvfrm
Library\Bee\artifacts\mvdfrm\UnityEngine.dll_E902865CDFDB868F.mvfrm
Library\Bee\artifacts\mvdfrm\UnityEngine.DSPGraphModule.dll_C12931DA9E3042E4.mvfrm
Library\Bee\artifacts\mvdfrm\UnityEngine.GameCenterModule.dll_A427ED1EE9554A1E.mvfrm
Library\Bee\artifacts\mvdfrm\UnityEngine.GIModule.dll_8F2B041099ED8409.mvfrm
Library\Bee\artifacts\mvdfrm\UnityEngine.GridModule.dll_EE9F95E79ADF601D.mvfrm
Library\Bee\artifacts\mvdfrm\UnityEngine.HotReloadModule.dll_42E8EE50FB44FD03.mvfrm
Library\Bee\artifacts\mvdfrm\UnityEngine.ImageConversionModule.dll_717A161AAFBDA22E.mvfrm
Library\Bee\artifacts\mvdfrm\UnityEngine.IMGUIModule.dll_B091F4F69BAB0E14.mvfrm
Library\Bee\artifacts\mvdfrm\UnityEngine.InputLegacyModule.dll_1C0A555FD97E58C0.mvfrm
Library\Bee\artifacts\mvdfrm\UnityEngine.InputModule.dll_DEA81D404BB19ED7.mvfrm
Library\Bee\artifacts\mvdfrm\UnityEngine.JSONSerializeModule.dll_F677308E2096C225.mvfrm
Library\Bee\artifacts\mvdfrm\UnityEngine.LocalizationModule.dll_57F0F0F29FFA50F0.mvfrm
Library\Bee\artifacts\mvdfrm\UnityEngine.ParticleSystemModule.dll_5A39A613605BBD0C.mvfrm
Library\Bee\artifacts\mvdfrm\UnityEngine.PerformanceReportingModule.dll_7C2769DB544A04E5.mvfrm
Library\Bee\artifacts\mvdfrm\UnityEngine.Physics2DModule.dll_0E46203BC10ED916.mvfrm
Library\Bee\artifacts\mvdfrm\UnityEngine.PhysicsModule.dll_1E965EE9B3C7B964.mvfrm
Library\Bee\artifacts\mvdfrm\UnityEngine.ProfilerModule.dll_EE1E09A7C528F8D0.mvfrm
Library\Bee\artifacts\mvdfrm\UnityEngine.RuntimeInitializeOnLoadManagerInitializerModule.dll_F5A79012EE1F75DF.mvfrm
Library\Bee\artifacts\mvdfrm\UnityEngine.ScreenCaptureModule.dll_105EDE133502EE87.mvfrm
Library\Bee\artifacts\mvdfrm\UnityEngine.SharedInternalsModule.dll_F58B54F026EB9D7E.mvfrm
Library\Bee\artifacts\mvdfrm\UnityEngine.SpriteMaskModule.dll_8D545FAF0AC4DF98.mvfrm
Library\Bee\artifacts\mvdfrm\UnityEngine.SpriteShapeModule.dll_A426679BF72EDAD9.mvfrm
Library\Bee\artifacts\mvdfrm\UnityEngine.StreamingModule.dll_76351D9B6F9998BF.mvfrm
Library\Bee\artifacts\mvdfrm\UnityEngine.SubstanceModule.dll_52E031E4BAEC96CD.mvfrm
Library\Bee\artifacts\mvdfrm\UnityEngine.SubsystemsModule.dll_F801C610D90CC7AB.mvfrm
Library\Bee\artifacts\mvdfrm\UnityEngine.TerrainModule.dll_38DCDA5889860252.mvfrm
Library\Bee\artifacts\mvdfrm\UnityEngine.TerrainPhysicsModule.dll_5AB44EE6799EB799.mvfrm
Library\Bee\artifacts\mvdfrm\UnityEngine.TextCoreFontEngineModule.dll_EEC2B9B7512B38E4.mvfrm
Library\Bee\artifacts\mvdfrm\UnityEngine.TextCoreTextEngineModule.dll_36AAF028E0AEF202.mvfrm
Library\Bee\artifacts\mvdfrm\UnityEngine.TextRenderingModule.dll_399E501DEC3A6E7C.mvfrm
Library\Bee\artifacts\mvdfrm\UnityEngine.TilemapModule.dll_D7D941D9A142E35B.mvfrm
Library\Bee\artifacts\mvdfrm\UnityEngine.TLSModule.dll_42CC754A19AF1138.mvfrm
Library\Bee\artifacts\mvdfrm\UnityEngine.UIElementsModule.dll_FC402778DC3903A2.mvfrm
Library\Bee\artifacts\mvdfrm\UnityEngine.UIElementsNativeModule.dll_88D85C79D31740B9.mvfrm
Library\Bee\artifacts\mvdfrm\UnityEngine.UIModule.dll_F26259305A85A19B.mvfrm
Library\Bee\artifacts\mvdfrm\UnityEngine.UmbraModule.dll_F30701A862A025A6.mvfrm
Library\Bee\artifacts\mvdfrm\UnityEngine.UNETModule.dll_A3D4C1E2CF99BF9F.mvfrm
Library\Bee\artifacts\mvdfrm\UnityEngine.UnityAnalyticsModule.dll_79D916DD0C830F08.mvfrm
Library\Bee\artifacts\mvdfrm\UnityEngine.UnityConnectModule.dll_87673599517E8BDC.mvfrm
Library\Bee\artifacts\mvdfrm\UnityEngine.UnityCurlModule.dll_F4BCD17C9025D36E.mvfrm
Library\Bee\artifacts\mvdfrm\UnityEngine.UnityTestProtocolModule.dll_672B226A97759EDC.mvfrm
Library\Bee\artifacts\mvdfrm\UnityEngine.UnityWebRequestAssetBundleModule.dll_27407143C4E537D9.mvfrm
Library\Bee\artifacts\mvdfrm\UnityEngine.UnityWebRequestAudioModule.dll_F423BDB9DAB4CF7D.mvfrm
Library\Bee\artifacts\mvdfrm\UnityEngine.UnityWebRequestModule.dll_83191DC4BAB23CAD.mvfrm
Library\Bee\artifacts\mvdfrm\UnityEngine.UnityWebRequestTextureModule.dll_C6DEBA063EA7E6F2.mvfrm
Library\Bee\artifacts\mvdfrm\UnityEngine.UnityWebRequestWWWModule.dll_016D3584D06EAE6E.mvfrm
Library\Bee\artifacts\mvdfrm\UnityEngine.VehiclesModule.dll_339AC9F0A5F9415E.mvfrm
Library\Bee\artifacts\mvdfrm\UnityEngine.VFXModule.dll_C3AB0DB8F01C7AA5.mvfrm
Library\Bee\artifacts\mvdfrm\UnityEngine.VideoModule.dll_9D3BD9FA980B95D8.mvfrm
Library\Bee\artifacts\mvdfrm\UnityEngine.VirtualTexturingModule.dll_AD6510E8ABC5C144.mvfrm
Library\Bee\artifacts\mvdfrm\UnityEngine.VRModule.dll_45347FB5FC402713.mvfrm
Library\Bee\artifacts\mvdfrm\UnityEngine.WindModule.dll_877D552213C1488F.mvfrm
Library\Bee\artifacts\mvdfrm\UnityEngine.XRModule.dll_77F342BA857A7471.mvfrm