Library\Bee\artifacts\mvdfrm\Unity.VisualScripting.Core.ref.dll_9F10ABE6F543486D.mvfrm
Library\Bee\artifacts\mvdfrm\UnityEngine.UI.ref.dll_6B5C9FE847018E19.mvfrm
Library\Bee\artifacts\mvdfrm\Unity.Burst.Cecil.dll_723ED5C9EE0273BD.mvfrm
Library\Bee\artifacts\mvdfrm\Unity.Burst.Cecil.Mdb.dll_CC52350503903E3A.mvfrm
Library\Bee\artifacts\mvdfrm\Unity.Burst.Cecil.Pdb.dll_E3A4AD7482453FBD.mvfrm
Library\Bee\artifacts\mvdfrm\Unity.Burst.Cecil.Rocks.dll_D15615DB80C8C97D.mvfrm
Library\Bee\artifacts\mvdfrm\Unity.Burst.Unsafe.dll_0A8119FE3BF0C8C6.mvfrm
Library\Bee\artifacts\mvdfrm\Unity.VisualScripting.Antlr3.Runtime.dll_E35B068FDF6CA9F8.mvfrm
Library\Bee\artifacts\mvdfrm\UnityEngine.AccessibilityModule.dll_FF86D4EB873B2480.mvfrm
Library\Bee\artifacts\mvdfrm\UnityEngine.AIModule.dll_35042E1A548883FA.mvfrm
Library\Bee\artifacts\mvdfrm\UnityEngine.AndroidJNIModule.dll_811959851C3F46B8.mvfrm
Library\Bee\artifacts\mvdfrm\UnityEngine.AnimationModule.dll_A9F99BB56602E326.mvfrm
Library\Bee\artifacts\mvdfrm\UnityEngine.ARModule.dll_EE76F31DB1A5E2C3.mvfrm
Library\Bee\artifacts\mvdfrm\UnityEngine.AssetBundleModule.dll_EE88872B04237B14.mvfrm
Library\Bee\artifacts\mvdfrm\UnityEngine.AudioModule.dll_D9D1CB9E11EE0A98.mvfrm
Library\Bee\artifacts\mvdfrm\UnityEngine.ClothModule.dll_40BA2898EC0AE97C.mvfrm
Library\Bee\artifacts\mvdfrm\UnityEngine.ClusterInputModule.dll_71C178919A2E3AE2.mvfrm
Library\Bee\artifacts\mvdfrm\UnityEngine.ClusterRendererModule.dll_EF0BC9B95D4F2BBF.mvfrm
Library\Bee\artifacts\mvdfrm\UnityEngine.CoreModule.dll_023FCE069F19F191.mvfrm
Library\Bee\artifacts\mvdfrm\UnityEngine.CrashReportingModule.dll_2C33556C1390A9C9.mvfrm
Library\Bee\artifacts\mvdfrm\UnityEngine.DirectorModule.dll_82916C96A8099BEE.mvfrm
Library\Bee\artifacts\mvdfrm\UnityEngine.dll_E2A3D03E1CC0A334.mvfrm
Library\Bee\artifacts\mvdfrm\UnityEngine.DSPGraphModule.dll_87E2CE001A6A6D0F.mvfrm
Library\Bee\artifacts\mvdfrm\UnityEngine.GameCenterModule.dll_AB66A39FE28037A9.mvfrm
Library\Bee\artifacts\mvdfrm\UnityEngine.GIModule.dll_CD407727F0376C14.mvfrm
Library\Bee\artifacts\mvdfrm\UnityEngine.GridModule.dll_DFB0E9F4B76E8788.mvfrm
Library\Bee\artifacts\mvdfrm\UnityEngine.HotReloadModule.dll_2B4259BB4135FEA8.mvfrm
Library\Bee\artifacts\mvdfrm\UnityEngine.ImageConversionModule.dll_5AFDC769DF73E3B3.mvfrm
Library\Bee\artifacts\mvdfrm\UnityEngine.IMGUIModule.dll_12316B04D81F9E79.mvfrm
Library\Bee\artifacts\mvdfrm\UnityEngine.InputLegacyModule.dll_7FCDA2499C153105.mvfrm
Library\Bee\artifacts\mvdfrm\UnityEngine.InputModule.dll_4047934E88262F3C.mvfrm
Library\Bee\artifacts\mvdfrm\UnityEngine.JSONSerializeModule.dll_5F9E5E278676850A.mvfrm
Library\Bee\artifacts\mvdfrm\UnityEngine.LocalizationModule.dll_B00E42E431AA2DDB.mvfrm
Library\Bee\artifacts\mvdfrm\UnityEngine.ParticleSystemModule.dll_7F459EB881A23557.mvfrm
Library\Bee\artifacts\mvdfrm\UnityEngine.PerformanceReportingModule.dll_FDCA353DB1F55750.mvfrm
Library\Bee\artifacts\mvdfrm\UnityEngine.Physics2DModule.dll_F69F8BA606FFDABB.mvfrm
Library\Bee\artifacts\mvdfrm\UnityEngine.PhysicsModule.dll_A3139F2A381B7869.mvfrm
Library\Bee\artifacts\mvdfrm\UnityEngine.ProfilerModule.dll_B4D7A5CD416322FB.mvfrm
Library\Bee\artifacts\mvdfrm\UnityEngine.RuntimeInitializeOnLoadManagerInitializerModule.dll_04759D748C974184.mvfrm
Library\Bee\artifacts\mvdfrm\UnityEngine.ScreenCaptureModule.dll_79860BAC9AE2B16C.mvfrm
Library\Bee\artifacts\mvdfrm\UnityEngine.SharedInternalsModule.dll_DF0F063F56A1DF03.mvfrm
Library\Bee\artifacts\mvdfrm\UnityEngine.SpriteMaskModule.dll_9493163003EFCD23.mvfrm
Library\Bee\artifacts\mvdfrm\UnityEngine.SpriteShapeModule.dll_07E9B485B9C5B31E.mvfrm
Library\Bee\artifacts\mvdfrm\UnityEngine.StreamingModule.dll_5E8E8905B58A9A64.mvfrm
Library\Bee\artifacts\mvdfrm\UnityEngine.SubstanceModule.dll_3B399D4F00DD9872.mvfrm
Library\Bee\artifacts\mvdfrm\UnityEngine.SubsystemsModule.dll_FF407C91D237B536.mvfrm
Library\Bee\artifacts\mvdfrm\UnityEngine.TerrainModule.dll_BD5A1A990DD9C157.mvfrm
Library\Bee\artifacts\mvdfrm\UnityEngine.TerrainPhysicsModule.dll_7FC0478B9AE52FE4.mvfrm
Library\Bee\artifacts\mvdfrm\UnityEngine.TextCoreFontEngineModule.dll_55772C8D5439EBEF.mvfrm
Library\Bee\artifacts\mvdfrm\UnityEngine.TextCoreTextEngineModule.dll_9D5F62FEE3BDA50D.mvfrm
Library\Bee\artifacts\mvdfrm\UnityEngine.TextRenderingModule.dll_A2C57DB7521A3161.mvfrm
Library\Bee\artifacts\mvdfrm\UnityEngine.TilemapModule.dll_5C56821A2596A260.mvfrm
Library\Bee\artifacts\mvdfrm\UnityEngine.TLSModule.dll_B53FB985470806FD.mvfrm
Library\Bee\artifacts\mvdfrm\UnityEngine.UIElementsModule.dll_037EDDF9D563F12D.mvfrm
Library\Bee\artifacts\mvdfrm\UnityEngine.UIElementsNativeModule.dll_1F82AD8A15338064.mvfrm
Library\Bee\artifacts\mvdfrm\UnityEngine.UIModule.dll_3077CC47B0CF89A6.mvfrm
Library\Bee\artifacts\mvdfrm\UnityEngine.UmbraModule.dll_54A677B69F14B60B.mvfrm
Library\Bee\artifacts\mvdfrm\UnityEngine.UNETModule.dll_94E615EFEC28E70A.mvfrm
Library\Bee\artifacts\mvdfrm\UnityEngine.UnityAnalyticsModule.dll_9EE50F822DC98753.mvfrm
Library\Bee\artifacts\mvdfrm\UnityEngine.UnityConnectModule.dll_DF84878AE32E68C7.mvfrm
Library\Bee\artifacts\mvdfrm\UnityEngine.UnityCurlModule.dll_DD163CE6D616D513.mvfrm
Library\Bee\artifacts\mvdfrm\UnityEngine.UnityTestProtocolModule.dll_1E74A337F5CA7301.mvfrm
Library\Bee\artifacts\mvdfrm\UnityEngine.UnityWebRequestAssetBundleModule.dll_44650988FA3A7064.mvfrm
Library\Bee\artifacts\mvdfrm\UnityEngine.UnityWebRequestAudioModule.dll_75C6891C386021E8.mvfrm
Library\Bee\artifacts\mvdfrm\UnityEngine.UnityWebRequestModule.dll_6C9CCF13EA687E32.mvfrm
Library\Bee\artifacts\mvdfrm\UnityEngine.UnityWebRequestTextureModule.dll_0BEF3215AAD784BD.mvfrm
Library\Bee\artifacts\mvdfrm\UnityEngine.UnityWebRequestWWWModule.dll_6821A85AD37D6179.mvfrm
Library\Bee\artifacts\mvdfrm\UnityEngine.VehiclesModule.dll_FA54661622336B89.mvfrm
Library\Bee\artifacts\mvdfrm\UnityEngine.VFXModule.dll_361E51F41D75706A.mvfrm
Library\Bee\artifacts\mvdfrm\UnityEngine.VideoModule.dll_FEDB5008D480263D.mvfrm
Library\Bee\artifacts\mvdfrm\UnityEngine.VirtualTexturingModule.dll_440F61F8EDE200EF.mvfrm
Library\Bee\artifacts\mvdfrm\UnityEngine.VRModule.dll_8349F2CD528A0F1E.mvfrm
Library\Bee\artifacts\mvdfrm\UnityEngine.WindModule.dll_788EA92F30506FFA.mvfrm
Library\Bee\artifacts\mvdfrm\UnityEngine.XRModule.dll_B608B5D1DBC45C7C.mvfrm