Library\Bee\artifacts\mvdfrm\Unity.2D.Animation.Editor.ref.dll_A13BD6459BB26E0B.mvfrm
Library\Bee\artifacts\mvdfrm\Unity.2D.Animation.Runtime.ref.dll_6747672A37E369F0.mvfrm
Library\Bee\artifacts\mvdfrm\Unity.2D.Common.Editor.ref.dll_BD59A5CBF9D52B22.mvfrm
Library\Bee\artifacts\mvdfrm\Unity.2D.Common.Runtime.ref.dll_77798F371487C3E9.mvfrm
Library\Bee\artifacts\mvdfrm\Unity.2D.IK.Editor.ref.dll_F60355C05B38283B.mvfrm
Library\Bee\artifacts\mvdfrm\Unity.2D.IK.Runtime.ref.dll_16F22BA31A1D34C0.mvfrm
Library\Bee\artifacts\mvdfrm\Unity.2D.Path.Editor.ref.dll_583975DB52C81A78.mvfrm
Library\Bee\artifacts\mvdfrm\Unity.2D.PixelPerfect.Editor.ref.dll_500201FE28D4C516.mvfrm
Library\Bee\artifacts\mvdfrm\Unity.2D.PixelPerfect.ref.dll_88C9F7A57CCB704B.mvfrm
Library\Bee\artifacts\mvdfrm\Unity.2D.Psdimporter.Editor.ref.dll_B76AC6E0D8C9839C.mvfrm
Library\Bee\artifacts\mvdfrm\Unity.2D.Sprite.Editor.ref.dll_DDBAA27A82CE9E28.mvfrm
Library\Bee\artifacts\mvdfrm\Unity.2D.SpriteShape.Editor.ref.dll_1AEEC37E15960FB3.mvfrm
Library\Bee\artifacts\mvdfrm\Unity.2D.SpriteShape.Runtime.ref.dll_BCD600250821B9C8.mvfrm
Library\Bee\artifacts\mvdfrm\Unity.2D.Tilemap.Editor.ref.dll_436C0E2610862891.mvfrm
Library\Bee\artifacts\mvdfrm\Unity.2D.Tilemap.Extras.Editor.ref.dll_8DA00406C36CC6AA.mvfrm
Library\Bee\artifacts\mvdfrm\Unity.2D.Tilemap.Extras.ref.dll_371E356D6F5B6577.mvfrm
Library\Bee\artifacts\mvdfrm\Unity.Burst.Editor.ref.dll_E2F92DAB6C167CC9.mvfrm
Library\Bee\artifacts\mvdfrm\Unity.Burst.ref.dll_F30DFA20C0DD1968.mvfrm
Library\Bee\artifacts\mvdfrm\Unity.InternalAPIEditorBridge.001.ref.dll_C275F416F58A86FE.mvfrm
Library\Bee\artifacts\mvdfrm\Unity.InternalAPIEngineBridge.001.ref.dll_B4F0ACC15A996E43.mvfrm
Library\Bee\artifacts\mvdfrm\Unity.Mathematics.Editor.ref.dll_9A20CFD48BC11F43.mvfrm
Library\Bee\artifacts\mvdfrm\Unity.Mathematics.ref.dll_E8EFDB1B8D5C174E.mvfrm
Library\Bee\artifacts\mvdfrm\Unity.PlasticSCM.Editor.ref.dll_257AEB342BE77856.mvfrm
Library\Bee\artifacts\mvdfrm\Unity.Rider.Editor.ref.dll_9B5591808ABA37AF.mvfrm
Library\Bee\artifacts\mvdfrm\Unity.Sysroot.Linux_x86_64.ref.dll_24C7B1A47E18827F.mvfrm
Library\Bee\artifacts\mvdfrm\Unity.SysrootPackage.Editor.ref.dll_51BD9AC91712BC0C.mvfrm
Library\Bee\artifacts\mvdfrm\Unity.TextMeshPro.Editor.ref.dll_159E061D77A10B86.mvfrm
Library\Bee\artifacts\mvdfrm\Unity.TextMeshPro.ref.dll_84A4293DBDD182DB.mvfrm
Library\Bee\artifacts\mvdfrm\Unity.Timeline.Editor.ref.dll_0D3D3C0B73557612.mvfrm
Library\Bee\artifacts\mvdfrm\Unity.Timeline.ref.dll_621CDDF9C514DF8F.mvfrm
Library\Bee\artifacts\mvdfrm\Unity.Toolchain.Win-x86_64-Linux-x86_64.ref.dll_224B50E477DB13E8.mvfrm
Library\Bee\artifacts\mvdfrm\Unity.VSCode.Editor.ref.dll_3628369EB48E4C19.mvfrm
Library\Bee\artifacts\mvdfrm\Unity.VisualScripting.Core.Editor.ref.dll_EDC8690F57C5BDFD.mvfrm
Library\Bee\artifacts\mvdfrm\Unity.VisualScripting.Core.ref.dll_D75DF4EA1AFE54F4.mvfrm
Library\Bee\artifacts\mvdfrm\Unity.VisualScripting.Flow.Editor.ref.dll_6AF951BE66A4493E.mvfrm
Library\Bee\artifacts\mvdfrm\Unity.VisualScripting.Flow.ref.dll_1E6ED5409D07C9A3.mvfrm
Library\Bee\artifacts\mvdfrm\Unity.VisualScripting.SettingsProvider.Editor.ref.dll_A1A44354E0B583A8.mvfrm
Library\Bee\artifacts\mvdfrm\Unity.VisualScripting.State.Editor.ref.dll_E03858E727F23F6F.mvfrm
Library\Bee\artifacts\mvdfrm\Unity.VisualScripting.State.ref.dll_D91762B7076BE462.mvfrm
Library\Bee\artifacts\mvdfrm\Unity.VisualScripting.Welcome.Editor.ref.dll_855007D19CE1C2BE.mvfrm
Library\Bee\artifacts\mvdfrm\Unity.VisualStudio.Editor.ref.dll_3A975DBA53ABA4AD.mvfrm
Library\Bee\artifacts\mvdfrm\UnityEditor.UI.ref.dll_4C98D3F7040CD4F5.mvfrm
Library\Bee\artifacts\mvdfrm\UnityEngine.UI.ref.dll_08FEAA520A2EFD60.mvfrm
Library\Bee\artifacts\mvdfrm\Unity.Burst.Cecil.dll_723ED5C9EE0273BD.mvfrm
Library\Bee\artifacts\mvdfrm\Unity.Burst.Cecil.Mdb.dll_CC52350503903E3A.mvfrm
Library\Bee\artifacts\mvdfrm\Unity.Burst.Cecil.Pdb.dll_E3A4AD7482453FBD.mvfrm
Library\Bee\artifacts\mvdfrm\Unity.Burst.Cecil.Rocks.dll_D15615DB80C8C97D.mvfrm
Library\Bee\artifacts\mvdfrm\Unity.Burst.Unsafe.dll_0A8119FE3BF0C8C6.mvfrm
Library\Bee\artifacts\mvdfrm\Unity.VisualScripting.Antlr3.Runtime.dll_E35B068FDF6CA9F8.mvfrm
Library\Bee\artifacts\mvdfrm\UnityEditor.CoreModule.dll_C91D7715364509E4.mvfrm
Library\Bee\artifacts\mvdfrm\UnityEditor.DeviceSimulatorModule.dll_5A200D75C0AE251D.mvfrm
Library\Bee\artifacts\mvdfrm\UnityEditor.DiagnosticsModule.dll_8D23DC963058482B.mvfrm
Library\Bee\artifacts\mvdfrm\UnityEditor.dll_AD69D7CBA687FA71.mvfrm
Library\Bee\artifacts\mvdfrm\UnityEditor.GraphViewModule.dll_3251BA0A1B2994A2.mvfrm
Library\Bee\artifacts\mvdfrm\UnityEditor.PackageManagerUIModule.dll_4E6760C434B10240.mvfrm
Library\Bee\artifacts\mvdfrm\UnityEditor.QuickSearchModule.dll_18335DA3892F4484.mvfrm
Library\Bee\artifacts\mvdfrm\UnityEditor.SceneTemplateModule.dll_96F0A3C66C93FB85.mvfrm
Library\Bee\artifacts\mvdfrm\UnityEditor.TextCoreFontEngineModule.dll_8544D548EBD16AE2.mvfrm
Library\Bee\artifacts\mvdfrm\UnityEditor.TextCoreTextEngineModule.dll_CD2D0BBA7B552400.mvfrm
Library\Bee\artifacts\mvdfrm\UnityEditor.UIBuilderModule.dll_86DA67268DE20DD6.mvfrm
Library\Bee\artifacts\mvdfrm\UnityEditor.UIElementsModule.dll_F6C496FD8E53B6A0.mvfrm
Library\Bee\artifacts\mvdfrm\UnityEditor.UIElementsSamplesModule.dll_CCC38ACB1DC3B4CD.mvfrm
Library\Bee\artifacts\mvdfrm\UnityEditor.UIServiceModule.dll_BFCC788977195DF0.mvfrm
Library\Bee\artifacts\mvdfrm\UnityEditor.UnityConnectModule.dll_A6AD9109BECAAA9A.mvfrm
Library\Bee\artifacts\mvdfrm\UnityEngine.AccessibilityModule.dll_C9960F5D6D0A2322.mvfrm
Library\Bee\artifacts\mvdfrm\UnityEngine.AIModule.dll_A949D20E124A83B8.mvfrm
Library\Bee\artifacts\mvdfrm\UnityEngine.AndroidJNIModule.dll_750D7FD0D7732576.mvfrm
Library\Bee\artifacts\mvdfrm\UnityEngine.AnimationModule.dll_00D73632F5866948.mvfrm
Library\Bee\artifacts\mvdfrm\UnityEngine.ARModule.dll_62BC97116F67E281.mvfrm
Library\Bee\artifacts\mvdfrm\UnityEngine.AssetBundleModule.dll_5C1C9094EB95F976.mvfrm
Library\Bee\artifacts\mvdfrm\UnityEngine.AudioModule.dll_A3FDDA32DD78383A.mvfrm
Library\Bee\artifacts\mvdfrm\UnityEngine.ClothModule.dll_0AE6372DB795171E.mvfrm
Library\Bee\artifacts\mvdfrm\UnityEngine.ClusterInputModule.dll_264A061F70527D60.mvfrm
Library\Bee\artifacts\mvdfrm\UnityEngine.ClusterRendererModule.dll_5FCCCFE7306932A1.mvfrm
Library\Bee\artifacts\mvdfrm\UnityEngine.CoreModule.dll_EC3E4A67DE4A750F.mvfrm
Library\Bee\artifacts\mvdfrm\UnityEngine.CrashReportingModule.dll_23367D70A7FB4807.mvfrm
Library\Bee\artifacts\mvdfrm\UnityEngine.DirectorModule.dll_E5AC3243D8940EEC.mvfrm
Library\Bee\artifacts\mvdfrm\UnityEngine.dll_E00E1EA404FB8756.mvfrm
Library\Bee\artifacts\mvdfrm\UnityEngine.DSPGraphModule.dll_EAFD93AD4AF4E00D.mvfrm
Library\Bee\artifacts\mvdfrm\UnityEngine.GameCenterModule.dll_9F5AC9EB9DB41667.mvfrm
Library\Bee\artifacts\mvdfrm\UnityEngine.GIModule.dll_41861B1BADF96BD2.mvfrm
Library\Bee\artifacts\mvdfrm\UnityEngine.GridModule.dll_C9AF6655F69F0B06.mvfrm
Library\Bee\artifacts\mvdfrm\UnityEngine.HotReloadModule.dll_821FF438D0B984CA.mvfrm
Library\Bee\artifacts\mvdfrm\UnityEngine.ImageConversionModule.dll_CBBECD97B28DEA95.mvfrm
Library\Bee\artifacts\mvdfrm\UnityEngine.IMGUIModule.dll_DC5D7999A3A9CC1B.mvfrm
Library\Bee\artifacts\mvdfrm\UnityEngine.InputLegacyModule.dll_ED61ABB38387AF67.mvfrm
Library\Bee\artifacts\mvdfrm\UnityEngine.InputModule.dll_0A73A1E353B05CDE.mvfrm
Library\Bee\artifacts\mvdfrm\UnityEngine.JSONSerializeModule.dll_29AD98996C4583AC.mvfrm
Library\Bee\artifacts\mvdfrm\UnityEngine.LocalizationModule.dll_6496D07207CE7059.mvfrm
Library\Bee\artifacts\mvdfrm\UnityEngine.ParticleSystemModule.dll_7648C6BD160CD395.mvfrm
Library\Bee\artifacts\mvdfrm\UnityEngine.PerformanceReportingModule.dll_BFE8EB60F1ECD8CE.mvfrm
Library\Bee\artifacts\mvdfrm\UnityEngine.Physics2DModule.dll_4D7D2623968360DD.mvfrm
Library\Bee\artifacts\mvdfrm\UnityEngine.PhysicsModule.dll_251A471253BC8E4B.mvfrm
Library\Bee\artifacts\mvdfrm\UnityEngine.ProfilerModule.dll_17F26B7A71ED95F9.mvfrm
Library\Bee\artifacts\mvdfrm\UnityEngine.RuntimeInitializeOnLoadManagerInitializerModule.dll_F17F29B674120BA6.mvfrm
Library\Bee\artifacts\mvdfrm\UnityEngine.ScreenCaptureModule.dll_4395461E80B1B00E.mvfrm
Library\Bee\artifacts\mvdfrm\UnityEngine.SharedInternalsModule.dll_4FD00C6D29BBE5E5.mvfrm
Library\Bee\artifacts\mvdfrm\UnityEngine.SpriteMaskModule.dll_88873C7BBF23ABE1.mvfrm
Library\Bee\artifacts\mvdfrm\UnityEngine.SpriteShapeModule.dll_757DBDEFA1383180.mvfrm
Library\Bee\artifacts\mvdfrm\UnityEngine.StreamingModule.dll_B56C2383450E2086.mvfrm
Library\Bee\artifacts\mvdfrm\UnityEngine.SubstanceModule.dll_921737CC90611E94.mvfrm
Library\Bee\artifacts\mvdfrm\UnityEngine.SubsystemsModule.dll_F334A2DD8D6B93F4.mvfrm
Library\Bee\artifacts\mvdfrm\UnityEngine.TerrainModule.dll_3F60C281297AD739.mvfrm
Library\Bee\artifacts\mvdfrm\UnityEngine.TerrainPhysicsModule.dll_76C36F902F4FCE22.mvfrm
Library\Bee\artifacts\mvdfrm\UnityEngine.TextCoreFontEngineModule.dll_03A4509BFECF29AD.mvfrm
Library\Bee\artifacts\mvdfrm\UnityEngine.TextCoreTextEngineModule.dll_4B8C870D8E52E2CB.mvfrm
Library\Bee\artifacts\mvdfrm\UnityEngine.TextRenderingModule.dll_6CD4B82937E93003.mvfrm
Library\Bee\artifacts\mvdfrm\UnityEngine.TilemapModule.dll_DE5D2A024137B842.mvfrm
Library\Bee\artifacts\mvdfrm\UnityEngine.TLSModule.dll_36A876C92425D45F.mvfrm
Library\Bee\artifacts\mvdfrm\UnityEngine.UIElementsModule.dll_F77304459097CFEB.mvfrm
Library\Bee\artifacts\mvdfrm\UnityEngine.UIElementsNativeModule.dll_98E11559A6297262.mvfrm
Library\Bee\artifacts\mvdfrm\UnityEngine.UIModule.dll_A4BD703B6E918964.mvfrm
Library\Bee\artifacts\mvdfrm\UnityEngine.UmbraModule.dll_1ED2864B6A9EE3AD.mvfrm
Library\Bee\artifacts\mvdfrm\UnityEngine.UNETModule.dll_7EE492512B596A88.mvfrm
Library\Bee\artifacts\mvdfrm\UnityEngine.UnityAnalyticsModule.dll_95E83786C2342591.mvfrm
Library\Bee\artifacts\mvdfrm\UnityEngine.UnityConnectModule.dll_940D1518B952AB45.mvfrm
Library\Bee\artifacts\mvdfrm\UnityEngine.UnityCurlModule.dll_33F3D764659A5B35.mvfrm
Library\Bee\artifacts\mvdfrm\UnityEngine.UnityTestProtocolModule.dll_888640BD77BF0A23.mvfrm
Library\Bee\artifacts\mvdfrm\UnityEngine.UnityWebRequestAssetBundleModule.dll_3216815AFDE08D22.mvfrm
Library\Bee\artifacts\mvdfrm\UnityEngine.UnityWebRequestAudioModule.dll_37E53F3F7857A366.mvfrm
Library\Bee\artifacts\mvdfrm\UnityEngine.UnityWebRequestModule.dll_DD5DD541BD828514.mvfrm
Library\Bee\artifacts\mvdfrm\UnityEngine.UnityWebRequestTextureModule.dll_3AB563C6968341FB.mvfrm
Library\Bee\artifacts\mvdfrm\UnityEngine.UnityWebRequestWWWModule.dll_164ECC697E129F37.mvfrm
Library\Bee\artifacts\mvdfrm\UnityEngine.VehiclesModule.dll_5D6F2BC352BDDE87.mvfrm
Library\Bee\artifacts\mvdfrm\UnityEngine.VFXModule.dll_B7870F37FA933DCC.mvfrm
Library\Bee\artifacts\mvdfrm\UnityEngine.VideoModule.dll_C9075E9DA00A53DF.mvfrm
Library\Bee\artifacts\mvdfrm\UnityEngine.VirtualTexturingModule.dll_BD6DC9C87ED7F2ED.mvfrm
Library\Bee\artifacts\mvdfrm\UnityEngine.VRModule.dll_F78F96C1104C0EDC.mvfrm
Library\Bee\artifacts\mvdfrm\UnityEngine.WindModule.dll_628D25906F80F378.mvfrm
Library\Bee\artifacts\mvdfrm\UnityEngine.XRModule.dll_2A4E59C599865C3A.mvfrm
Library\Bee\artifacts\mvdfrm\Unity.Android.Gradle.dll_3C0ACEE1C7B645CC.mvfrm
Library\Bee\artifacts\mvdfrm\Unity.Android.Types.dll_86D76910DB6B5D30.mvfrm
Library\Bee\artifacts\mvdfrm\UnityEditor.iOS.Extensions.Common.dll_387C50021F5313E9.mvfrm
Library\Bee\artifacts\mvdfrm\UnityEditor.iOS.Extensions.Xcode.dll_09D7D28E22F8E573.mvfrm