Library\Bee\artifacts\mvdfrm\UnityEditor.TestRunner.ref.dll_DE1D13444BAAFBE7.mvfrm
Library\Bee\artifacts\mvdfrm\UnityEditor.UI.ref.dll_BD0E97F52A0DF729.mvfrm
Library\Bee\artifacts\mvdfrm\UnityEngine.TestRunner.ref.dll_AA3B5DF2776E59D2.mvfrm
Library\Bee\artifacts\mvdfrm\UnityEngine.UI.ref.dll_79746E5030301F94.mvfrm
Library\Bee\artifacts\mvdfrm\Unity.Burst.Cecil.dll_723ED5C9EE0273BD.mvfrm
Library\Bee\artifacts\mvdfrm\Unity.Burst.Cecil.Mdb.dll_CC52350503903E3A.mvfrm
Library\Bee\artifacts\mvdfrm\Unity.Burst.Cecil.Pdb.dll_E3A4AD7482453FBD.mvfrm
Library\Bee\artifacts\mvdfrm\Unity.Burst.Cecil.Rocks.dll_D15615DB80C8C97D.mvfrm
Library\Bee\artifacts\mvdfrm\Unity.Burst.Unsafe.dll_0A8119FE3BF0C8C6.mvfrm
Library\Bee\artifacts\mvdfrm\Unity.Plastic.Antlr3.Runtime.dll_9013067E50A97D7E.mvfrm
Library\Bee\artifacts\mvdfrm\Unity.VisualScripting.IonicZip.dll_09B2820965814193.mvfrm
Library\Bee\artifacts\mvdfrm\Unity.VisualScripting.YamlDotNet.dll_31EDDFAEAEA399D9.mvfrm
Library\Bee\artifacts\mvdfrm\Unity.VisualScripting.Antlr3.Runtime.dll_E35B068FDF6CA9F8.mvfrm
Library\Bee\artifacts\mvdfrm\UnityEditor.Graphs.dll_D78441535468B016.mvfrm
Library\Bee\artifacts\mvdfrm\UnityEditor.CoreModule.dll_C91D7715364509E4.mvfrm
Library\Bee\artifacts\mvdfrm\UnityEditor.DeviceSimulatorModule.dll_5A200D75C0AE251D.mvfrm
Library\Bee\artifacts\mvdfrm\UnityEditor.DiagnosticsModule.dll_8D23DC963058482B.mvfrm
Library\Bee\artifacts\mvdfrm\UnityEditor.dll_AD69D7CBA687FA71.mvfrm
Library\Bee\artifacts\mvdfrm\UnityEditor.GraphViewModule.dll_3251BA0A1B2994A2.mvfrm
Library\Bee\artifacts\mvdfrm\UnityEditor.PackageManagerUIModule.dll_4E6760C434B10240.mvfrm
Library\Bee\artifacts\mvdfrm\UnityEditor.QuickSearchModule.dll_18335DA3892F4484.mvfrm
Library\Bee\artifacts\mvdfrm\UnityEditor.SceneTemplateModule.dll_96F0A3C66C93FB85.mvfrm
Library\Bee\artifacts\mvdfrm\UnityEditor.TextCoreFontEngineModule.dll_8544D548EBD16AE2.mvfrm
Library\Bee\artifacts\mvdfrm\UnityEditor.TextCoreTextEngineModule.dll_CD2D0BBA7B552400.mvfrm
Library\Bee\artifacts\mvdfrm\UnityEditor.UIBuilderModule.dll_86DA67268DE20DD6.mvfrm
Library\Bee\artifacts\mvdfrm\UnityEditor.UIElementsModule.dll_F6C496FD8E53B6A0.mvfrm
Library\Bee\artifacts\mvdfrm\UnityEditor.UIElementsSamplesModule.dll_CCC38ACB1DC3B4CD.mvfrm
Library\Bee\artifacts\mvdfrm\UnityEditor.UIServiceModule.dll_BFCC788977195DF0.mvfrm
Library\Bee\artifacts\mvdfrm\UnityEditor.UnityConnectModule.dll_A6AD9109BECAAA9A.mvfrm
Library\Bee\artifacts\mvdfrm\UnityEngine.AccessibilityModule.dll_C9960F5D6D0A2322.mvfrm
Library\Bee\artifacts\mvdfrm\UnityEngine.AIModule.dll_A949D20E124A83B8.mvfrm
Library\Bee\artifacts\mvdfrm\UnityEngine.AndroidJNIModule.dll_750D7FD0D7732576.mvfrm
Library\Bee\artifacts\mvdfrm\UnityEngine.AnimationModule.dll_00D73632F5866948.mvfrm
Library\Bee\artifacts\mvdfrm\UnityEngine.ARModule.dll_62BC97116F67E281.mvfrm
Library\Bee\artifacts\mvdfrm\UnityEngine.AssetBundleModule.dll_5C1C9094EB95F976.mvfrm
Library\Bee\artifacts\mvdfrm\UnityEngine.AudioModule.dll_A3FDDA32DD78383A.mvfrm
Library\Bee\artifacts\mvdfrm\UnityEngine.ClothModule.dll_0AE6372DB795171E.mvfrm
Library\Bee\artifacts\mvdfrm\UnityEngine.ClusterInputModule.dll_264A061F70527D60.mvfrm
Library\Bee\artifacts\mvdfrm\UnityEngine.ClusterRendererModule.dll_5FCCCFE7306932A1.mvfrm
Library\Bee\artifacts\mvdfrm\UnityEngine.CoreModule.dll_EC3E4A67DE4A750F.mvfrm
Library\Bee\artifacts\mvdfrm\UnityEngine.CrashReportingModule.dll_23367D70A7FB4807.mvfrm
Library\Bee\artifacts\mvdfrm\UnityEngine.DirectorModule.dll_E5AC3243D8940EEC.mvfrm
Library\Bee\artifacts\mvdfrm\UnityEngine.dll_E00E1EA404FB8756.mvfrm
Library\Bee\artifacts\mvdfrm\UnityEngine.DSPGraphModule.dll_EAFD93AD4AF4E00D.mvfrm
Library\Bee\artifacts\mvdfrm\UnityEngine.GameCenterModule.dll_9F5AC9EB9DB41667.mvfrm
Library\Bee\artifacts\mvdfrm\UnityEngine.GIModule.dll_41861B1BADF96BD2.mvfrm
Library\Bee\artifacts\mvdfrm\UnityEngine.GridModule.dll_C9AF6655F69F0B06.mvfrm
Library\Bee\artifacts\mvdfrm\UnityEngine.HotReloadModule.dll_821FF438D0B984CA.mvfrm
Library\Bee\artifacts\mvdfrm\UnityEngine.ImageConversionModule.dll_CBBECD97B28DEA95.mvfrm
Library\Bee\artifacts\mvdfrm\UnityEngine.IMGUIModule.dll_DC5D7999A3A9CC1B.mvfrm
Library\Bee\artifacts\mvdfrm\UnityEngine.InputLegacyModule.dll_ED61ABB38387AF67.mvfrm
Library\Bee\artifacts\mvdfrm\UnityEngine.InputModule.dll_0A73A1E353B05CDE.mvfrm
Library\Bee\artifacts\mvdfrm\UnityEngine.JSONSerializeModule.dll_29AD98996C4583AC.mvfrm
Library\Bee\artifacts\mvdfrm\UnityEngine.LocalizationModule.dll_6496D07207CE7059.mvfrm
Library\Bee\artifacts\mvdfrm\UnityEngine.NVIDIAModule.dll_ECAED6EB96C8715B.mvfrm
Library\Bee\artifacts\mvdfrm\UnityEngine.ParticleSystemModule.dll_7648C6BD160CD395.mvfrm
Library\Bee\artifacts\mvdfrm\UnityEngine.PerformanceReportingModule.dll_BFE8EB60F1ECD8CE.mvfrm
Library\Bee\artifacts\mvdfrm\UnityEngine.Physics2DModule.dll_4D7D2623968360DD.mvfrm
Library\Bee\artifacts\mvdfrm\UnityEngine.PhysicsModule.dll_251A471253BC8E4B.mvfrm
Library\Bee\artifacts\mvdfrm\UnityEngine.ProfilerModule.dll_17F26B7A71ED95F9.mvfrm
Library\Bee\artifacts\mvdfrm\UnityEngine.RuntimeInitializeOnLoadManagerInitializerModule.dll_F17F29B674120BA6.mvfrm
Library\Bee\artifacts\mvdfrm\UnityEngine.ScreenCaptureModule.dll_4395461E80B1B00E.mvfrm
Library\Bee\artifacts\mvdfrm\UnityEngine.SharedInternalsModule.dll_4FD00C6D29BBE5E5.mvfrm
Library\Bee\artifacts\mvdfrm\UnityEngine.SpriteMaskModule.dll_88873C7BBF23ABE1.mvfrm
Library\Bee\artifacts\mvdfrm\UnityEngine.SpriteShapeModule.dll_757DBDEFA1383180.mvfrm
Library\Bee\artifacts\mvdfrm\UnityEngine.StreamingModule.dll_B56C2383450E2086.mvfrm
Library\Bee\artifacts\mvdfrm\UnityEngine.SubstanceModule.dll_921737CC90611E94.mvfrm
Library\Bee\artifacts\mvdfrm\UnityEngine.SubsystemsModule.dll_F334A2DD8D6B93F4.mvfrm
Library\Bee\artifacts\mvdfrm\UnityEngine.TerrainModule.dll_3F60C281297AD739.mvfrm
Library\Bee\artifacts\mvdfrm\UnityEngine.TerrainPhysicsModule.dll_76C36F902F4FCE22.mvfrm
Library\Bee\artifacts\mvdfrm\UnityEngine.TextCoreFontEngineModule.dll_03A4509BFECF29AD.mvfrm
Library\Bee\artifacts\mvdfrm\UnityEngine.TextCoreTextEngineModule.dll_4B8C870D8E52E2CB.mvfrm
Library\Bee\artifacts\mvdfrm\UnityEngine.TextRenderingModule.dll_6CD4B82937E93003.mvfrm
Library\Bee\artifacts\mvdfrm\UnityEngine.TilemapModule.dll_DE5D2A024137B842.mvfrm
Library\Bee\artifacts\mvdfrm\UnityEngine.TLSModule.dll_36A876C92425D45F.mvfrm
Library\Bee\artifacts\mvdfrm\UnityEngine.UaaLAnalyticsModule.dll_B77FE7F911FA1B33.mvfrm
Library\Bee\artifacts\mvdfrm\UnityEngine.UIElementsModule.dll_F77304459097CFEB.mvfrm
Library\Bee\artifacts\mvdfrm\UnityEngine.UIElementsNativeModule.dll_98E11559A6297262.mvfrm
Library\Bee\artifacts\mvdfrm\UnityEngine.UIModule.dll_A4BD703B6E918964.mvfrm
Library\Bee\artifacts\mvdfrm\UnityEngine.UmbraModule.dll_1ED2864B6A9EE3AD.mvfrm
Library\Bee\artifacts\mvdfrm\UnityEngine.UNETModule.dll_7EE492512B596A88.mvfrm
Library\Bee\artifacts\mvdfrm\UnityEngine.UnityAnalyticsModule.dll_95E83786C2342591.mvfrm
Library\Bee\artifacts\mvdfrm\UnityEngine.UnityConnectModule.dll_940D1518B952AB45.mvfrm
Library\Bee\artifacts\mvdfrm\UnityEngine.UnityCurlModule.dll_33F3D764659A5B35.mvfrm
Library\Bee\artifacts\mvdfrm\UnityEngine.UnityTestProtocolModule.dll_888640BD77BF0A23.mvfrm
Library\Bee\artifacts\mvdfrm\UnityEngine.UnityWebRequestAssetBundleModule.dll_3216815AFDE08D22.mvfrm
Library\Bee\artifacts\mvdfrm\UnityEngine.UnityWebRequestAudioModule.dll_37E53F3F7857A366.mvfrm
Library\Bee\artifacts\mvdfrm\UnityEngine.UnityWebRequestModule.dll_DD5DD541BD828514.mvfrm
Library\Bee\artifacts\mvdfrm\UnityEngine.UnityWebRequestTextureModule.dll_3AB563C6968341FB.mvfrm
Library\Bee\artifacts\mvdfrm\UnityEngine.UnityWebRequestWWWModule.dll_164ECC697E129F37.mvfrm
Library\Bee\artifacts\mvdfrm\UnityEngine.VehiclesModule.dll_5D6F2BC352BDDE87.mvfrm
Library\Bee\artifacts\mvdfrm\UnityEngine.VFXModule.dll_B7870F37FA933DCC.mvfrm
Library\Bee\artifacts\mvdfrm\UnityEngine.VideoModule.dll_C9075E9DA00A53DF.mvfrm
Library\Bee\artifacts\mvdfrm\UnityEngine.VirtualTexturingModule.dll_BD6DC9C87ED7F2ED.mvfrm
Library\Bee\artifacts\mvdfrm\UnityEngine.VRModule.dll_F78F96C1104C0EDC.mvfrm
Library\Bee\artifacts\mvdfrm\UnityEngine.WindModule.dll_628D25906F80F378.mvfrm
Library\Bee\artifacts\mvdfrm\UnityEngine.XRModule.dll_2A4E59C599865C3A.mvfrm
Library\Bee\artifacts\mvdfrm\Unity.Android.Gradle.dll_3C0ACEE1C7B645CC.mvfrm
Library\Bee\artifacts\mvdfrm\Unity.Android.Types.dll_86D76910DB6B5D30.mvfrm
Library\Bee\artifacts\mvdfrm\UnityEditor.Android.Extensions.dll_65295656922F898C.mvfrm
Library\Bee\artifacts\mvdfrm\UnityEditor.iOS.Extensions.Common.dll_387C50021F5313E9.mvfrm
Library\Bee\artifacts\mvdfrm\UnityEditor.iOS.Extensions.dll_4BD7A9B660C78C2C.mvfrm
Library\Bee\artifacts\mvdfrm\UnityEditor.iOS.Extensions.Xcode.dll_09D7D28E22F8E573.mvfrm
Library\Bee\artifacts\mvdfrm\UnityEditor.LinuxStandalone.Extensions.dll_60A6AF4A5E86342C.mvfrm
Library\Bee\artifacts\mvdfrm\UnityEditor.OSXStandalone.Extensions.dll_EB20F8CC81AEA1A7.mvfrm
Library\Bee\artifacts\mvdfrm\UnityEditor.WindowsStandalone.Extensions.dll_CC8239716FDBC9FC.mvfrm