-target:library
-out:"Library/Bee/artifacts/500b0aP.dag/Unity.Burst.dll"
-refout:"Library/Bee/artifacts/500b0aP.dag/Unity.Burst.ref.dll"
-define:UNITY_2021_2_0
-define:UNITY_2021_2
-define:UNITY_2021
-define:UNITY_5_3_OR_NEWER
-define:UNITY_5_4_OR_NEWER
-define:UNITY_5_5_OR_NEWER
-define:UNITY_5_6_OR_NEWER
-define:UNITY_2017_1_OR_NEWER
-define:UNITY_2017_2_OR_NEWER
-define:UNITY_2017_3_OR_NEWER
-define:UNITY_2017_4_OR_NEWER
-define:UNITY_2018_1_OR_NEWER
-define:UNITY_2018_2_OR_NEWER
-define:UNITY_2018_3_OR_NEWER
-define:UNITY_2018_4_OR_NEWER
-define:UNITY_2019_1_OR_NEWER
-define:UNITY_2019_2_OR_NEWER
-define:UNITY_2019_3_OR_NEWER
-define:UNITY_2019_4_OR_NEWER
-define:UNITY_2020_1_OR_NEWER
-define:UNITY_2020_2_OR_NEWER
-define:UNITY_2020_3_OR_NEWER
-define:UNITY_2021_1_OR_NEWER
-define:UNITY_2021_2_OR_NEWER
-define:USE_SEARCH_ENGINE_API
-define:USE_SEARCH_TABLE
-define:USE_SEARCH_MODULE
-define:USE_PROPERTY_DATABASE
-define:SCENE_TEMPLATE_MODULE
-define:ENABLE_AR
-define:ENABLE_AUDIO
-define:ENABLE_CACHING
-define:ENABLE_CLOTH
-define:ENABLE_EVENT_QUEUE
-define:ENABLE_MICROPHONE
-define:ENABLE_MULTIPLE_DISPLAYS
-define:ENABLE_PHYSICS
-define:ENABLE_TEXTURE_STREAMING
-define:ENABLE_VIRTUALTEXTURING
-define:ENABLE_UNET
-define:ENABLE_LZMA
-define:ENABLE_UNITYEVENTS
-define:ENABLE_VR
-define:ENABLE_WEBCAM
-define:ENABLE_UNITYWEBREQUEST
-define:ENABLE_WWW
-define:ENABLE_CLOUD_SERVICES
-define:ENABLE_CLOUD_SERVICES_COLLAB
-define:ENABLE_CLOUD_SERVICES_COLLAB_SOFTLOCKS
-define:ENABLE_CLOUD_SERVICES_ADS
-define:ENABLE_CLOUD_SERVICES_USE_WEBREQUEST
-define:ENABLE_CLOUD_SERVICES_CRASH_REPORTING
-define:ENABLE_CLOUD_SERVICES_PURCHASING
-define:ENABLE_CLOUD_SERVICES_ANALYTICS
-define:ENABLE_CLOUD_SERVICES_UNET
-define:ENABLE_CLOUD_SERVICES_BUILD
-define:ENABLE_CLOUD_LICENSE
-define:ENABLE_EDITOR_HUB_LICENSE
-define:ENABLE_WEBSOCKET_CLIENT
-define:ENABLE_DIRECTOR_AUDIO
-define:ENABLE_DIRECTOR_TEXTURE
-define:ENABLE_MANAGED_JOBS
-define:ENABLE_MANAGED_TRANSFORM_JOBS
-define:ENABLE_MANAGED_ANIMATION_JOBS
-define:ENABLE_MANAGED_AUDIO_JOBS
-define:INCLUDE_DYNAMIC_GI
-define:ENABLE_SCRIPTING_GC_WBARRIERS
-define:PLATFORM_SUPPORTS_MONO
-define:RENDER_SOFTWARE_CURSOR
-define:ENABLE_VIDEO
-define:PLATFORM_STANDALONE
-define:TEXTCORE_1_0_OR_NEWER
-define:PLATFORM_STANDALONE_WIN
-define:UNITY_STANDALONE_WIN
-define:UNITY_STANDALONE
-define:ENABLE_RUNTIME_GI
-define:ENABLE_MOVIES
-define:ENABLE_NETWORK
-define:ENABLE_NVIDIA
-define:ENABLE_CRUNCH_TEXTURE_COMPRESSION
-define:ENABLE_OUT_OF_PROCESS_CRASH_HANDLER
-define:ENABLE_CLUSTER_SYNC
-define:ENABLE_CLUSTERINPUT
-define:PLATFORM_UPDATES_TIME_OUTSIDE_OF_PLAYER_LOOP
-define:GFXDEVICE_WAITFOREVENT_MESSAGEPUMP
-define:ENABLE_WEBSOCKET_HOST
-define:ENABLE_MONO
-define:NET_STANDARD_2_0
-define:ENABLE_CUSTOM_RENDER_TEXTURE
-define:ENABLE_DIRECTOR
-define:ENABLE_LOCALIZATION
-define:ENABLE_SPRITES
-define:ENABLE_TERRAIN
-define:ENABLE_TILEMAP
-define:ENABLE_TIMELINE
-define:ENABLE_LEGACY_INPUT_MANAGER
-define:CSHARP_7_OR_LATER
-define:CSHARP_7_3_OR_NEWER
-r:"C:/Users/filip/Desktop/Projekty/DebatOX/debatox/DebatOX/Library/PackageCache/com.unity.burst@1.6.0-pre.2/Unity.Burst.CodeGen/Unity.Burst.Cecil.dll"
-r:"C:/Users/filip/Desktop/Projekty/DebatOX/debatox/DebatOX/Library/PackageCache/com.unity.burst@1.6.0-pre.2/Unity.Burst.CodeGen/Unity.Burst.Cecil.Mdb.dll"
-r:"C:/Users/filip/Desktop/Projekty/DebatOX/debatox/DebatOX/Library/PackageCache/com.unity.burst@1.6.0-pre.2/Unity.Burst.CodeGen/Unity.Burst.Cecil.Pdb.dll"
-r:"C:/Users/filip/Desktop/Projekty/DebatOX/debatox/DebatOX/Library/PackageCache/com.unity.burst@1.6.0-pre.2/Unity.Burst.CodeGen/Unity.Burst.Cecil.Rocks.dll"
-r:"C:/Users/filip/Desktop/Projekty/DebatOX/debatox/DebatOX/Library/PackageCache/com.unity.burst@1.6.0-pre.2/Unity.Burst.Unsafe.dll"
-r:"C:/Users/filip/Desktop/Projekty/DebatOX/debatox/DebatOX/Library/PackageCache/com.unity.nuget.newtonsoft-json@2.0.0/Runtime/AOT/Newtonsoft.Json.dll"
-r:"C:/Users/filip/Desktop/Projekty/DebatOX/debatox/DebatOX/Library/PackageCache/com.unity.visualscripting@1.7.2/Runtime/VisualScripting.Flow/Dependencies/NCalc/Unity.VisualScripting.Antlr3.Runtime.dll"
-r:"E:/Unity/Editor/2021.2.0b4/Editor/Data/NetStandard/compat/2.0.0/shims/netfx/mscorlib.dll"
-r:"E:/Unity/Editor/2021.2.0b4/Editor/Data/NetStandard/compat/2.0.0/shims/netfx/System.ComponentModel.Composition.dll"
-r:"E:/Unity/Editor/2021.2.0b4/Editor/Data/NetStandard/compat/2.0.0/shims/netfx/System.Core.dll"
-r:"E:/Unity/Editor/2021.2.0b4/Editor/Data/NetStandard/compat/2.0.0/shims/netfx/System.Data.dll"
-r:"E:/Unity/Editor/2021.2.0b4/Editor/Data/NetStandard/compat/2.0.0/shims/netfx/System.dll"
-r:"E:/Unity/Editor/2021.2.0b4/Editor/Data/NetStandard/compat/2.0.0/shims/netfx/System.Drawing.dll"
-r:"E:/Unity/Editor/2021.2.0b4/Editor/Data/NetStandard/compat/2.0.0/shims/netfx/System.IO.Compression.FileSystem.dll"
-r:"E:/Unity/Editor/2021.2.0b4/Editor/Data/NetStandard/compat/2.0.0/shims/netfx/System.Net.dll"
-r:"E:/Unity/Editor/2021.2.0b4/Editor/Data/NetStandard/compat/2.0.0/shims/netfx/System.Numerics.dll"
-r:"E:/Unity/Editor/2021.2.0b4/Editor/Data/NetStandard/compat/2.0.0/shims/netfx/System.Runtime.Serialization.dll"
-r:"E:/Unity/Editor/2021.2.0b4/Editor/Data/NetStandard/compat/2.0.0/shims/netfx/System.ServiceModel.Web.dll"
-r:"E:/Unity/Editor/2021.2.0b4/Editor/Data/NetStandard/compat/2.0.0/shims/netfx/System.Transactions.dll"
-r:"E:/Unity/Editor/2021.2.0b4/Editor/Data/NetStandard/compat/2.0.0/shims/netfx/System.Web.dll"
-r:"E:/Unity/Editor/2021.2.0b4/Editor/Data/NetStandard/compat/2.0.0/shims/netfx/System.Windows.dll"
-r:"E:/Unity/Editor/2021.2.0b4/Editor/Data/NetStandard/compat/2.0.0/shims/netfx/System.Xml.dll"
-r:"E:/Unity/Editor/2021.2.0b4/Editor/Data/NetStandard/compat/2.0.0/shims/netfx/System.Xml.Linq.dll"
-r:"E:/Unity/Editor/2021.2.0b4/Editor/Data/NetStandard/compat/2.0.0/shims/netfx/System.Xml.Serialization.dll"
-r:"E:/Unity/Editor/2021.2.0b4/Editor/Data/NetStandard/compat/2.0.0/shims/netstandard/Microsoft.Win32.Primitives.dll"
-r:"E:/Unity/Editor/2021.2.0b4/Editor/Data/NetStandard/compat/2.0.0/shims/netstandard/System.AppContext.dll"
-r:"E:/Unity/Editor/2021.2.0b4/Editor/Data/NetStandard/compat/2.0.0/shims/netstandard/System.Collections.Concurrent.dll"
-r:"E:/Unity/Editor/2021.2.0b4/Editor/Data/NetStandard/compat/2.0.0/shims/netstandard/System.Collections.dll"
-r:"E:/Unity/Editor/2021.2.0b4/Editor/Data/NetStandard/compat/2.0.0/shims/netstandard/System.Collections.NonGeneric.dll"
-r:"E:/Unity/Editor/2021.2.0b4/Editor/Data/NetStandard/compat/2.0.0/shims/netstandard/System.Collections.Specialized.dll"
-r:"E:/Unity/Editor/2021.2.0b4/Editor/Data/NetStandard/compat/2.0.0/shims/netstandard/System.ComponentModel.dll"
-r:"E:/Unity/Editor/2021.2.0b4/Editor/Data/NetStandard/compat/2.0.0/shims/netstandard/System.ComponentModel.EventBasedAsync.dll"
-r:"E:/Unity/Editor/2021.2.0b4/Editor/Data/NetStandard/compat/2.0.0/shims/netstandard/System.ComponentModel.Primitives.dll"
-r:"E:/Unity/Editor/2021.2.0b4/Editor/Data/NetStandard/compat/2.0.0/shims/netstandard/System.ComponentModel.TypeConverter.dll"
-r:"E:/Unity/Editor/2021.2.0b4/Editor/Data/NetStandard/compat/2.0.0/shims/netstandard/System.Console.dll"
-r:"E:/Unity/Editor/2021.2.0b4/Editor/Data/NetStandard/compat/2.0.0/shims/netstandard/System.Data.Common.dll"
-r:"E:/Unity/Editor/2021.2.0b4/Editor/Data/NetStandard/compat/2.0.0/shims/netstandard/System.Diagnostics.Contracts.dll"
-r:"E:/Unity/Editor/2021.2.0b4/Editor/Data/NetStandard/compat/2.0.0/shims/netstandard/System.Diagnostics.Debug.dll"
-r:"E:/Unity/Editor/2021.2.0b4/Editor/Data/NetStandard/compat/2.0.0/shims/netstandard/System.Diagnostics.FileVersionInfo.dll"
-r:"E:/Unity/Editor/2021.2.0b4/Editor/Data/NetStandard/compat/2.0.0/shims/netstandard/System.Diagnostics.Process.dll"
-r:"E:/Unity/Editor/2021.2.0b4/Editor/Data/NetStandard/compat/2.0.0/shims/netstandard/System.Diagnostics.StackTrace.dll"
-r:"E:/Unity/Editor/2021.2.0b4/Editor/Data/NetStandard/compat/2.0.0/shims/netstandard/System.Diagnostics.TextWriterTraceListener.dll"
-r:"E:/Unity/Editor/2021.2.0b4/Editor/Data/NetStandard/compat/2.0.0/shims/netstandard/System.Diagnostics.Tools.dll"
-r:"E:/Unity/Editor/2021.2.0b4/Editor/Data/NetStandard/compat/2.0.0/shims/netstandard/System.Diagnostics.TraceSource.dll"
-r:"E:/Unity/Editor/2021.2.0b4/Editor/Data/NetStandard/compat/2.0.0/shims/netstandard/System.Diagnostics.Tracing.dll"
-r:"E:/Unity/Editor/2021.2.0b4/Editor/Data/NetStandard/compat/2.0.0/shims/netstandard/System.Drawing.Primitives.dll"
-r:"E:/Unity/Editor/2021.2.0b4/Editor/Data/NetStandard/compat/2.0.0/shims/netstandard/System.Dynamic.Runtime.dll"
-r:"E:/Unity/Editor/2021.2.0b4/Editor/Data/NetStandard/compat/2.0.0/shims/netstandard/System.Globalization.Calendars.dll"
-r:"E:/Unity/Editor/2021.2.0b4/Editor/Data/NetStandard/compat/2.0.0/shims/netstandard/System.Globalization.dll"
-r:"E:/Unity/Editor/2021.2.0b4/Editor/Data/NetStandard/compat/2.0.0/shims/netstandard/System.Globalization.Extensions.dll"
-r:"E:/Unity/Editor/2021.2.0b4/Editor/Data/NetStandard/compat/2.0.0/shims/netstandard/System.IO.Compression.dll"
-r:"E:/Unity/Editor/2021.2.0b4/Editor/Data/NetStandard/compat/2.0.0/shims/netstandard/System.IO.Compression.ZipFile.dll"
-r:"E:/Unity/Editor/2021.2.0b4/Editor/Data/NetStandard/compat/2.0.0/shims/netstandard/System.IO.dll"
-r:"E:/Unity/Editor/2021.2.0b4/Editor/Data/NetStandard/compat/2.0.0/shims/netstandard/System.IO.FileSystem.dll"
-r:"E:/Unity/Editor/2021.2.0b4/Editor/Data/NetStandard/compat/2.0.0/shims/netstandard/System.IO.FileSystem.DriveInfo.dll"
-r:"E:/Unity/Editor/2021.2.0b4/Editor/Data/NetStandard/compat/2.0.0/shims/netstandard/System.IO.FileSystem.Primitives.dll"
-r:"E:/Unity/Editor/2021.2.0b4/Editor/Data/NetStandard/compat/2.0.0/shims/netstandard/System.IO.FileSystem.Watcher.dll"
-r:"E:/Unity/Editor/2021.2.0b4/Editor/Data/NetStandard/compat/2.0.0/shims/netstandard/System.IO.IsolatedStorage.dll"
-r:"E:/Unity/Editor/2021.2.0b4/Editor/Data/NetStandard/compat/2.0.0/shims/netstandard/System.IO.MemoryMappedFiles.dll"
-r:"E:/Unity/Editor/2021.2.0b4/Editor/Data/NetStandard/compat/2.0.0/shims/netstandard/System.IO.Pipes.dll"
-r:"E:/Unity/Editor/2021.2.0b4/Editor/Data/NetStandard/compat/2.0.0/shims/netstandard/System.IO.UnmanagedMemoryStream.dll"
-r:"E:/Unity/Editor/2021.2.0b4/Editor/Data/NetStandard/compat/2.0.0/shims/netstandard/System.Linq.dll"
-r:"E:/Unity/Editor/2021.2.0b4/Editor/Data/NetStandard/compat/2.0.0/shims/netstandard/System.Linq.Expressions.dll"
-r:"E:/Unity/Editor/2021.2.0b4/Editor/Data/NetStandard/compat/2.0.0/shims/netstandard/System.Linq.Parallel.dll"
-r:"E:/Unity/Editor/2021.2.0b4/Editor/Data/NetStandard/compat/2.0.0/shims/netstandard/System.Linq.Queryable.dll"
-r:"E:/Unity/Editor/2021.2.0b4/Editor/Data/NetStandard/compat/2.0.0/shims/netstandard/System.Net.Http.dll"
-r:"E:/Unity/Editor/2021.2.0b4/Editor/Data/NetStandard/compat/2.0.0/shims/netstandard/System.Net.NameResolution.dll"
-r:"E:/Unity/Editor/2021.2.0b4/Editor/Data/NetStandard/compat/2.0.0/shims/netstandard/System.Net.NetworkInformation.dll"
-r:"E:/Unity/Editor/2021.2.0b4/Editor/Data/NetStandard/compat/2.0.0/shims/netstandard/System.Net.Ping.dll"
-r:"E:/Unity/Editor/2021.2.0b4/Editor/Data/NetStandard/compat/2.0.0/shims/netstandard/System.Net.Primitives.dll"
-r:"E:/Unity/Editor/2021.2.0b4/Editor/Data/NetStandard/compat/2.0.0/shims/netstandard/System.Net.Requests.dll"
-r:"E:/Unity/Editor/2021.2.0b4/Editor/Data/NetStandard/compat/2.0.0/shims/netstandard/System.Net.Security.dll"
-r:"E:/Unity/Editor/2021.2.0b4/Editor/Data/NetStandard/compat/2.0.0/shims/netstandard/System.Net.Sockets.dll"
-r:"E:/Unity/Editor/2021.2.0b4/Editor/Data/NetStandard/compat/2.0.0/shims/netstandard/System.Net.WebHeaderCollection.dll"
-r:"E:/Unity/Editor/2021.2.0b4/Editor/Data/NetStandard/compat/2.0.0/shims/netstandard/System.Net.WebSockets.Client.dll"
-r:"E:/Unity/Editor/2021.2.0b4/Editor/Data/NetStandard/compat/2.0.0/shims/netstandard/System.Net.WebSockets.dll"
-r:"E:/Unity/Editor/2021.2.0b4/Editor/Data/NetStandard/compat/2.0.0/shims/netstandard/System.ObjectModel.dll"
-r:"E:/Unity/Editor/2021.2.0b4/Editor/Data/NetStandard/compat/2.0.0/shims/netstandard/System.Reflection.dll"
-r:"E:/Unity/Editor/2021.2.0b4/Editor/Data/NetStandard/compat/2.0.0/shims/netstandard/System.Reflection.Extensions.dll"
-r:"E:/Unity/Editor/2021.2.0b4/Editor/Data/NetStandard/compat/2.0.0/shims/netstandard/System.Reflection.Primitives.dll"
-r:"E:/Unity/Editor/2021.2.0b4/Editor/Data/NetStandard/compat/2.0.0/shims/netstandard/System.Resources.Reader.dll"
-r:"E:/Unity/Editor/2021.2.0b4/Editor/Data/NetStandard/compat/2.0.0/shims/netstandard/System.Resources.ResourceManager.dll"
-r:"E:/Unity/Editor/2021.2.0b4/Editor/Data/NetStandard/compat/2.0.0/shims/netstandard/System.Resources.Writer.dll"
-r:"E:/Unity/Editor/2021.2.0b4/Editor/Data/NetStandard/compat/2.0.0/shims/netstandard/System.Runtime.CompilerServices.VisualC.dll"
-r:"E:/Unity/Editor/2021.2.0b4/Editor/Data/NetStandard/compat/2.0.0/shims/netstandard/System.Runtime.dll"
-r:"E:/Unity/Editor/2021.2.0b4/Editor/Data/NetStandard/compat/2.0.0/shims/netstandard/System.Runtime.Extensions.dll"
-r:"E:/Unity/Editor/2021.2.0b4/Editor/Data/NetStandard/compat/2.0.0/shims/netstandard/System.Runtime.Handles.dll"
-r:"E:/Unity/Editor/2021.2.0b4/Editor/Data/NetStandard/compat/2.0.0/shims/netstandard/System.Runtime.InteropServices.dll"
-r:"E:/Unity/Editor/2021.2.0b4/Editor/Data/NetStandard/compat/2.0.0/shims/netstandard/System.Runtime.InteropServices.RuntimeInformation.dll"
-r:"E:/Unity/Editor/2021.2.0b4/Editor/Data/NetStandard/compat/2.0.0/shims/netstandard/System.Runtime.Numerics.dll"
-r:"E:/Unity/Editor/2021.2.0b4/Editor/Data/NetStandard/compat/2.0.0/shims/netstandard/System.Runtime.Serialization.Formatters.dll"
-r:"E:/Unity/Editor/2021.2.0b4/Editor/Data/NetStandard/compat/2.0.0/shims/netstandard/System.Runtime.Serialization.Json.dll"
-r:"E:/Unity/Editor/2021.2.0b4/Editor/Data/NetStandard/compat/2.0.0/shims/netstandard/System.Runtime.Serialization.Primitives.dll"
-r:"E:/Unity/Editor/2021.2.0b4/Editor/Data/NetStandard/compat/2.0.0/shims/netstandard/System.Runtime.Serialization.Xml.dll"
-r:"E:/Unity/Editor/2021.2.0b4/Editor/Data/NetStandard/compat/2.0.0/shims/netstandard/System.Security.Claims.dll"
-r:"E:/Unity/Editor/2021.2.0b4/Editor/Data/NetStandard/compat/2.0.0/shims/netstandard/System.Security.Cryptography.Algorithms.dll"
-r:"E:/Unity/Editor/2021.2.0b4/Editor/Data/NetStandard/compat/2.0.0/shims/netstandard/System.Security.Cryptography.Csp.dll"
-r:"E:/Unity/Editor/2021.2.0b4/Editor/Data/NetStandard/compat/2.0.0/shims/netstandard/System.Security.Cryptography.Encoding.dll"
-r:"E:/Unity/Editor/2021.2.0b4/Editor/Data/NetStandard/compat/2.0.0/shims/netstandard/System.Security.Cryptography.Primitives.dll"
-r:"E:/Unity/Editor/2021.2.0b4/Editor/Data/NetStandard/compat/2.0.0/shims/netstandard/System.Security.Cryptography.X509Certificates.dll"
-r:"E:/Unity/Editor/2021.2.0b4/Editor/Data/NetStandard/compat/2.0.0/shims/netstandard/System.Security.Principal.dll"
-r:"E:/Unity/Editor/2021.2.0b4/Editor/Data/NetStandard/compat/2.0.0/shims/netstandard/System.Security.SecureString.dll"
-r:"E:/Unity/Editor/2021.2.0b4/Editor/Data/NetStandard/compat/2.0.0/shims/netstandard/System.Text.Encoding.dll"
-r:"E:/Unity/Editor/2021.2.0b4/Editor/Data/NetStandard/compat/2.0.0/shims/netstandard/System.Text.Encoding.Extensions.dll"
-r:"E:/Unity/Editor/2021.2.0b4/Editor/Data/NetStandard/compat/2.0.0/shims/netstandard/System.Text.RegularExpressions.dll"
-r:"E:/Unity/Editor/2021.2.0b4/Editor/Data/NetStandard/compat/2.0.0/shims/netstandard/System.Threading.dll"
-r:"E:/Unity/Editor/2021.2.0b4/Editor/Data/NetStandard/compat/2.0.0/shims/netstandard/System.Threading.Overlapped.dll"
-r:"E:/Unity/Editor/2021.2.0b4/Editor/Data/NetStandard/compat/2.0.0/shims/netstandard/System.Threading.Tasks.dll"
-r:"E:/Unity/Editor/2021.2.0b4/Editor/Data/NetStandard/compat/2.0.0/shims/netstandard/System.Threading.Tasks.Parallel.dll"
-r:"E:/Unity/Editor/2021.2.0b4/Editor/Data/NetStandard/compat/2.0.0/shims/netstandard/System.Threading.Thread.dll"
-r:"E:/Unity/Editor/2021.2.0b4/Editor/Data/NetStandard/compat/2.0.0/shims/netstandard/System.Threading.ThreadPool.dll"
-r:"E:/Unity/Editor/2021.2.0b4/Editor/Data/NetStandard/compat/2.0.0/shims/netstandard/System.Threading.Timer.dll"
-r:"E:/Unity/Editor/2021.2.0b4/Editor/Data/NetStandard/compat/2.0.0/shims/netstandard/System.ValueTuple.dll"
-r:"E:/Unity/Editor/2021.2.0b4/Editor/Data/NetStandard/compat/2.0.0/shims/netstandard/System.Xml.ReaderWriter.dll"
-r:"E:/Unity/Editor/2021.2.0b4/Editor/Data/NetStandard/compat/2.0.0/shims/netstandard/System.Xml.XDocument.dll"
-r:"E:/Unity/Editor/2021.2.0b4/Editor/Data/NetStandard/compat/2.0.0/shims/netstandard/System.Xml.XmlDocument.dll"
-r:"E:/Unity/Editor/2021.2.0b4/Editor/Data/NetStandard/compat/2.0.0/shims/netstandard/System.Xml.XmlSerializer.dll"
-r:"E:/Unity/Editor/2021.2.0b4/Editor/Data/NetStandard/compat/2.0.0/shims/netstandard/System.Xml.XPath.dll"
-r:"E:/Unity/Editor/2021.2.0b4/Editor/Data/NetStandard/compat/2.0.0/shims/netstandard/System.Xml.XPath.XDocument.dll"
-r:"E:/Unity/Editor/2021.2.0b4/Editor/Data/NetStandard/Extensions/2.0.0/System.Numerics.Vectors.dll"
-r:"E:/Unity/Editor/2021.2.0b4/Editor/Data/NetStandard/Extensions/2.0.0/System.Runtime.InteropServices.WindowsRuntime.dll"
-r:"E:/Unity/Editor/2021.2.0b4/Editor/Data/NetStandard/ref/2.0.0/netstandard.dll"
-r:"E:/Unity/Editor/2021.2.0b4/Editor/Data/PlaybackEngines/WindowsStandaloneSupport/Variations/mono/Managed/UnityEngine.AccessibilityModule.dll"
-r:"E:/Unity/Editor/2021.2.0b4/Editor/Data/PlaybackEngines/WindowsStandaloneSupport/Variations/mono/Managed/UnityEngine.AIModule.dll"
-r:"E:/Unity/Editor/2021.2.0b4/Editor/Data/PlaybackEngines/WindowsStandaloneSupport/Variations/mono/Managed/UnityEngine.AndroidJNIModule.dll"
-r:"E:/Unity/Editor/2021.2.0b4/Editor/Data/PlaybackEngines/WindowsStandaloneSupport/Variations/mono/Managed/UnityEngine.AnimationModule.dll"
-r:"E:/Unity/Editor/2021.2.0b4/Editor/Data/PlaybackEngines/WindowsStandaloneSupport/Variations/mono/Managed/UnityEngine.ARModule.dll"
-r:"E:/Unity/Editor/2021.2.0b4/Editor/Data/PlaybackEngines/WindowsStandaloneSupport/Variations/mono/Managed/UnityEngine.AssetBundleModule.dll"
-r:"E:/Unity/Editor/2021.2.0b4/Editor/Data/PlaybackEngines/WindowsStandaloneSupport/Variations/mono/Managed/UnityEngine.AudioModule.dll"
-r:"E:/Unity/Editor/2021.2.0b4/Editor/Data/PlaybackEngines/WindowsStandaloneSupport/Variations/mono/Managed/UnityEngine.ClothModule.dll"
-r:"E:/Unity/Editor/2021.2.0b4/Editor/Data/PlaybackEngines/WindowsStandaloneSupport/Variations/mono/Managed/UnityEngine.ClusterInputModule.dll"
-r:"E:/Unity/Editor/2021.2.0b4/Editor/Data/PlaybackEngines/WindowsStandaloneSupport/Variations/mono/Managed/UnityEngine.ClusterRendererModule.dll"
-r:"E:/Unity/Editor/2021.2.0b4/Editor/Data/PlaybackEngines/WindowsStandaloneSupport/Variations/mono/Managed/UnityEngine.CoreModule.dll"
-r:"E:/Unity/Editor/2021.2.0b4/Editor/Data/PlaybackEngines/WindowsStandaloneSupport/Variations/mono/Managed/UnityEngine.CrashReportingModule.dll"
-r:"E:/Unity/Editor/2021.2.0b4/Editor/Data/PlaybackEngines/WindowsStandaloneSupport/Variations/mono/Managed/UnityEngine.DirectorModule.dll"
-r:"E:/Unity/Editor/2021.2.0b4/Editor/Data/PlaybackEngines/WindowsStandaloneSupport/Variations/mono/Managed/UnityEngine.dll"
-r:"E:/Unity/Editor/2021.2.0b4/Editor/Data/PlaybackEngines/WindowsStandaloneSupport/Variations/mono/Managed/UnityEngine.DSPGraphModule.dll"
-r:"E:/Unity/Editor/2021.2.0b4/Editor/Data/PlaybackEngines/WindowsStandaloneSupport/Variations/mono/Managed/UnityEngine.GameCenterModule.dll"
-r:"E:/Unity/Editor/2021.2.0b4/Editor/Data/PlaybackEngines/WindowsStandaloneSupport/Variations/mono/Managed/UnityEngine.GIModule.dll"
-r:"E:/Unity/Editor/2021.2.0b4/Editor/Data/PlaybackEngines/WindowsStandaloneSupport/Variations/mono/Managed/UnityEngine.GridModule.dll"
-r:"E:/Unity/Editor/2021.2.0b4/Editor/Data/PlaybackEngines/WindowsStandaloneSupport/Variations/mono/Managed/UnityEngine.HotReloadModule.dll"
-r:"E:/Unity/Editor/2021.2.0b4/Editor/Data/PlaybackEngines/WindowsStandaloneSupport/Variations/mono/Managed/UnityEngine.ImageConversionModule.dll"
-r:"E:/Unity/Editor/2021.2.0b4/Editor/Data/PlaybackEngines/WindowsStandaloneSupport/Variations/mono/Managed/UnityEngine.IMGUIModule.dll"
-r:"E:/Unity/Editor/2021.2.0b4/Editor/Data/PlaybackEngines/WindowsStandaloneSupport/Variations/mono/Managed/UnityEngine.InputLegacyModule.dll"
-r:"E:/Unity/Editor/2021.2.0b4/Editor/Data/PlaybackEngines/WindowsStandaloneSupport/Variations/mono/Managed/UnityEngine.InputModule.dll"
-r:"E:/Unity/Editor/2021.2.0b4/Editor/Data/PlaybackEngines/WindowsStandaloneSupport/Variations/mono/Managed/UnityEngine.JSONSerializeModule.dll"
-r:"E:/Unity/Editor/2021.2.0b4/Editor/Data/PlaybackEngines/WindowsStandaloneSupport/Variations/mono/Managed/UnityEngine.LocalizationModule.dll"
-r:"E:/Unity/Editor/2021.2.0b4/Editor/Data/PlaybackEngines/WindowsStandaloneSupport/Variations/mono/Managed/UnityEngine.ParticleSystemModule.dll"
-r:"E:/Unity/Editor/2021.2.0b4/Editor/Data/PlaybackEngines/WindowsStandaloneSupport/Variations/mono/Managed/UnityEngine.PerformanceReportingModule.dll"
-r:"E:/Unity/Editor/2021.2.0b4/Editor/Data/PlaybackEngines/WindowsStandaloneSupport/Variations/mono/Managed/UnityEngine.Physics2DModule.dll"
-r:"E:/Unity/Editor/2021.2.0b4/Editor/Data/PlaybackEngines/WindowsStandaloneSupport/Variations/mono/Managed/UnityEngine.PhysicsModule.dll"
-r:"E:/Unity/Editor/2021.2.0b4/Editor/Data/PlaybackEngines/WindowsStandaloneSupport/Variations/mono/Managed/UnityEngine.ProfilerModule.dll"
-r:"E:/Unity/Editor/2021.2.0b4/Editor/Data/PlaybackEngines/WindowsStandaloneSupport/Variations/mono/Managed/UnityEngine.RuntimeInitializeOnLoadManagerInitializerModule.dll"
-r:"E:/Unity/Editor/2021.2.0b4/Editor/Data/PlaybackEngines/WindowsStandaloneSupport/Variations/mono/Managed/UnityEngine.ScreenCaptureModule.dll"
-r:"E:/Unity/Editor/2021.2.0b4/Editor/Data/PlaybackEngines/WindowsStandaloneSupport/Variations/mono/Managed/UnityEngine.SharedInternalsModule.dll"
-r:"E:/Unity/Editor/2021.2.0b4/Editor/Data/PlaybackEngines/WindowsStandaloneSupport/Variations/mono/Managed/UnityEngine.SpriteMaskModule.dll"
-r:"E:/Unity/Editor/2021.2.0b4/Editor/Data/PlaybackEngines/WindowsStandaloneSupport/Variations/mono/Managed/UnityEngine.SpriteShapeModule.dll"
-r:"E:/Unity/Editor/2021.2.0b4/Editor/Data/PlaybackEngines/WindowsStandaloneSupport/Variations/mono/Managed/UnityEngine.StreamingModule.dll"
-r:"E:/Unity/Editor/2021.2.0b4/Editor/Data/PlaybackEngines/WindowsStandaloneSupport/Variations/mono/Managed/UnityEngine.SubstanceModule.dll"
-r:"E:/Unity/Editor/2021.2.0b4/Editor/Data/PlaybackEngines/WindowsStandaloneSupport/Variations/mono/Managed/UnityEngine.SubsystemsModule.dll"
-r:"E:/Unity/Editor/2021.2.0b4/Editor/Data/PlaybackEngines/WindowsStandaloneSupport/Variations/mono/Managed/UnityEngine.TerrainModule.dll"
-r:"E:/Unity/Editor/2021.2.0b4/Editor/Data/PlaybackEngines/WindowsStandaloneSupport/Variations/mono/Managed/UnityEngine.TerrainPhysicsModule.dll"
-r:"E:/Unity/Editor/2021.2.0b4/Editor/Data/PlaybackEngines/WindowsStandaloneSupport/Variations/mono/Managed/UnityEngine.TextCoreFontEngineModule.dll"
-r:"E:/Unity/Editor/2021.2.0b4/Editor/Data/PlaybackEngines/WindowsStandaloneSupport/Variations/mono/Managed/UnityEngine.TextCoreTextEngineModule.dll"
-r:"E:/Unity/Editor/2021.2.0b4/Editor/Data/PlaybackEngines/WindowsStandaloneSupport/Variations/mono/Managed/UnityEngine.TextRenderingModule.dll"
-r:"E:/Unity/Editor/2021.2.0b4/Editor/Data/PlaybackEngines/WindowsStandaloneSupport/Variations/mono/Managed/UnityEngine.TilemapModule.dll"
-r:"E:/Unity/Editor/2021.2.0b4/Editor/Data/PlaybackEngines/WindowsStandaloneSupport/Variations/mono/Managed/UnityEngine.TLSModule.dll"
-r:"E:/Unity/Editor/2021.2.0b4/Editor/Data/PlaybackEngines/WindowsStandaloneSupport/Variations/mono/Managed/UnityEngine.UIElementsModule.dll"
-r:"E:/Unity/Editor/2021.2.0b4/Editor/Data/PlaybackEngines/WindowsStandaloneSupport/Variations/mono/Managed/UnityEngine.UIElementsNativeModule.dll"
-r:"E:/Unity/Editor/2021.2.0b4/Editor/Data/PlaybackEngines/WindowsStandaloneSupport/Variations/mono/Managed/UnityEngine.UIModule.dll"
-r:"E:/Unity/Editor/2021.2.0b4/Editor/Data/PlaybackEngines/WindowsStandaloneSupport/Variations/mono/Managed/UnityEngine.UmbraModule.dll"
-r:"E:/Unity/Editor/2021.2.0b4/Editor/Data/PlaybackEngines/WindowsStandaloneSupport/Variations/mono/Managed/UnityEngine.UNETModule.dll"
-r:"E:/Unity/Editor/2021.2.0b4/Editor/Data/PlaybackEngines/WindowsStandaloneSupport/Variations/mono/Managed/UnityEngine.UnityAnalyticsModule.dll"
-r:"E:/Unity/Editor/2021.2.0b4/Editor/Data/PlaybackEngines/WindowsStandaloneSupport/Variations/mono/Managed/UnityEngine.UnityConnectModule.dll"
-r:"E:/Unity/Editor/2021.2.0b4/Editor/Data/PlaybackEngines/WindowsStandaloneSupport/Variations/mono/Managed/UnityEngine.UnityCurlModule.dll"
-r:"E:/Unity/Editor/2021.2.0b4/Editor/Data/PlaybackEngines/WindowsStandaloneSupport/Variations/mono/Managed/UnityEngine.UnityTestProtocolModule.dll"
-r:"E:/Unity/Editor/2021.2.0b4/Editor/Data/PlaybackEngines/WindowsStandaloneSupport/Variations/mono/Managed/UnityEngine.UnityWebRequestAssetBundleModule.dll"
-r:"E:/Unity/Editor/2021.2.0b4/Editor/Data/PlaybackEngines/WindowsStandaloneSupport/Variations/mono/Managed/UnityEngine.UnityWebRequestAudioModule.dll"
-r:"E:/Unity/Editor/2021.2.0b4/Editor/Data/PlaybackEngines/WindowsStandaloneSupport/Variations/mono/Managed/UnityEngine.UnityWebRequestModule.dll"
-r:"E:/Unity/Editor/2021.2.0b4/Editor/Data/PlaybackEngines/WindowsStandaloneSupport/Variations/mono/Managed/UnityEngine.UnityWebRequestTextureModule.dll"
-r:"E:/Unity/Editor/2021.2.0b4/Editor/Data/PlaybackEngines/WindowsStandaloneSupport/Variations/mono/Managed/UnityEngine.UnityWebRequestWWWModule.dll"
-r:"E:/Unity/Editor/2021.2.0b4/Editor/Data/PlaybackEngines/WindowsStandaloneSupport/Variations/mono/Managed/UnityEngine.VehiclesModule.dll"
-r:"E:/Unity/Editor/2021.2.0b4/Editor/Data/PlaybackEngines/WindowsStandaloneSupport/Variations/mono/Managed/UnityEngine.VFXModule.dll"
-r:"E:/Unity/Editor/2021.2.0b4/Editor/Data/PlaybackEngines/WindowsStandaloneSupport/Variations/mono/Managed/UnityEngine.VideoModule.dll"
-r:"E:/Unity/Editor/2021.2.0b4/Editor/Data/PlaybackEngines/WindowsStandaloneSupport/Variations/mono/Managed/UnityEngine.VirtualTexturingModule.dll"
-r:"E:/Unity/Editor/2021.2.0b4/Editor/Data/PlaybackEngines/WindowsStandaloneSupport/Variations/mono/Managed/UnityEngine.VRModule.dll"
-r:"E:/Unity/Editor/2021.2.0b4/Editor/Data/PlaybackEngines/WindowsStandaloneSupport/Variations/mono/Managed/UnityEngine.WindModule.dll"
-r:"E:/Unity/Editor/2021.2.0b4/Editor/Data/PlaybackEngines/WindowsStandaloneSupport/Variations/mono/Managed/UnityEngine.XRModule.dll"
-r:"Library/Bee/artifacts/500b0aP.dag/UnityEngine.UI.ref.dll"
"Library/PackageCache/com.unity.burst@1.6.0-pre.2/Runtime/BurstCompileAttribute.cs"
"Library/PackageCache/com.unity.burst@1.6.0-pre.2/Runtime/BurstCompiler.cs"
"Library/PackageCache/com.unity.burst@1.6.0-pre.2/Runtime/BurstCompilerOptions.cs"
"Library/PackageCache/com.unity.burst@1.6.0-pre.2/Runtime/BurstExecutionEnvironment.cs"
"Library/PackageCache/com.unity.burst@1.6.0-pre.2/Runtime/BurstRuntime.cs"
"Library/PackageCache/com.unity.burst@1.6.0-pre.2/Runtime/BurstString.cs"
"Library/PackageCache/com.unity.burst@1.6.0-pre.2/Runtime/BurstString.Float.cs"
"Library/PackageCache/com.unity.burst@1.6.0-pre.2/Runtime/CompilerServices/Aliasing.cs"
"Library/PackageCache/com.unity.burst@1.6.0-pre.2/Runtime/CompilerServices/AssumeRangeAttribute.cs"
"Library/PackageCache/com.unity.burst@1.6.0-pre.2/Runtime/CompilerServices/Constant.cs"
"Library/PackageCache/com.unity.burst@1.6.0-pre.2/Runtime/CompilerServices/Hint.cs"
"Library/PackageCache/com.unity.burst@1.6.0-pre.2/Runtime/CompilerServices/IgnoreWarningAttribute.cs"
"Library/PackageCache/com.unity.burst@1.6.0-pre.2/Runtime/CompilerServices/Loop.cs"
"Library/PackageCache/com.unity.burst@1.6.0-pre.2/Runtime/CompilerServices/SkipLocalsInitAttribute.cs"
"Library/PackageCache/com.unity.burst@1.6.0-pre.2/Runtime/CompilerServices/SPMD.cs"
"Library/PackageCache/com.unity.burst@1.6.0-pre.2/Runtime/DiagnosticId.cs"
"Library/PackageCache/com.unity.burst@1.6.0-pre.2/Runtime/FunctionPointer.cs"
"Library/PackageCache/com.unity.burst@1.6.0-pre.2/Runtime/Intrinsics/Arm/NEON.cs"
"Library/PackageCache/com.unity.burst@1.6.0-pre.2/Runtime/Intrinsics/Arm/NEON_AArch64.cs"
"Library/PackageCache/com.unity.burst@1.6.0-pre.2/Runtime/Intrinsics/Arm/NEON_AArch64_crypto.cs"
"Library/PackageCache/com.unity.burst@1.6.0-pre.2/Runtime/Intrinsics/Arm/NEON_AArch64_dotprod.cs"
"Library/PackageCache/com.unity.burst@1.6.0-pre.2/Runtime/Intrinsics/Arm/NEON_AArch64_fp16.cs"
"Library/PackageCache/com.unity.burst@1.6.0-pre.2/Runtime/Intrinsics/Arm/NEON_AArch64_rdma.cs"
"Library/PackageCache/com.unity.burst@1.6.0-pre.2/Runtime/Intrinsics/Arm/NEON_ctor.cs"
"Library/PackageCache/com.unity.burst@1.6.0-pre.2/Runtime/Intrinsics/Common.cs"
"Library/PackageCache/com.unity.burst@1.6.0-pre.2/Runtime/Intrinsics/f16.cs"
"Library/PackageCache/com.unity.burst@1.6.0-pre.2/Runtime/Intrinsics/SimdDebugViews.cs"
"Library/PackageCache/com.unity.burst@1.6.0-pre.2/Runtime/Intrinsics/v128.cs"
"Library/PackageCache/com.unity.burst@1.6.0-pre.2/Runtime/Intrinsics/v256.cs"
"Library/PackageCache/com.unity.burst@1.6.0-pre.2/Runtime/Intrinsics/v64.cs"
"Library/PackageCache/com.unity.burst@1.6.0-pre.2/Runtime/Intrinsics/x86/Avx.cs"
"Library/PackageCache/com.unity.burst@1.6.0-pre.2/Runtime/Intrinsics/x86/Avx2.cs"
"Library/PackageCache/com.unity.burst@1.6.0-pre.2/Runtime/Intrinsics/x86/Bmi1.cs"
"Library/PackageCache/com.unity.burst@1.6.0-pre.2/Runtime/Intrinsics/x86/Bmi2.cs"
"Library/PackageCache/com.unity.burst@1.6.0-pre.2/Runtime/Intrinsics/x86/Common.cs"
"Library/PackageCache/com.unity.burst@1.6.0-pre.2/Runtime/Intrinsics/x86/Csr.cs"
"Library/PackageCache/com.unity.burst@1.6.0-pre.2/Runtime/Intrinsics/x86/F16C.cs"
"Library/PackageCache/com.unity.burst@1.6.0-pre.2/Runtime/Intrinsics/x86/Fma.cs"
"Library/PackageCache/com.unity.burst@1.6.0-pre.2/Runtime/Intrinsics/x86/Popcnt.cs"
"Library/PackageCache/com.unity.burst@1.6.0-pre.2/Runtime/Intrinsics/x86/Sse.cs"
"Library/PackageCache/com.unity.burst@1.6.0-pre.2/Runtime/Intrinsics/x86/Sse2.cs"
"Library/PackageCache/com.unity.burst@1.6.0-pre.2/Runtime/Intrinsics/x86/Sse3.cs"
"Library/PackageCache/com.unity.burst@1.6.0-pre.2/Runtime/Intrinsics/x86/Sse4_1.cs"
"Library/PackageCache/com.unity.burst@1.6.0-pre.2/Runtime/Intrinsics/x86/Sse4_2.cs"
"Library/PackageCache/com.unity.burst@1.6.0-pre.2/Runtime/Intrinsics/x86/Ssse3.cs"
"Library/PackageCache/com.unity.burst@1.6.0-pre.2/Runtime/NoAliasAttribute.cs"
"Library/PackageCache/com.unity.burst@1.6.0-pre.2/Runtime/SharedStatic.cs"
-langversion:9.0
/unsafe+
/deterministic
/optimize+
/debug:portable
/nologo
/RuntimeMetadataVersion:v4.0.30319

/nowarn:0169
/nowarn:0649
/utf8output
/preferreduilang:en-US
-warn:0