Library\Bee\artifacts\mvdfrm\UnityEngine.UI.ref.dll_90EE99AF760AE606.mvfrm
Library\Bee\artifacts\mvdfrm\Unity.Burst.Cecil.dll_723ED5C9EE0273BD.mvfrm
Library\Bee\artifacts\mvdfrm\Unity.Burst.Cecil.Mdb.dll_CC52350503903E3A.mvfrm
Library\Bee\artifacts\mvdfrm\Unity.Burst.Cecil.Pdb.dll_E3A4AD7482453FBD.mvfrm
Library\Bee\artifacts\mvdfrm\Unity.Burst.Cecil.Rocks.dll_D15615DB80C8C97D.mvfrm
Library\Bee\artifacts\mvdfrm\Unity.Burst.Unsafe.dll_0A8119FE3BF0C8C6.mvfrm
Library\Bee\artifacts\mvdfrm\Unity.VisualScripting.Antlr3.Runtime.dll_E35B068FDF6CA9F8.mvfrm
Library\Bee\artifacts\mvdfrm\UnityEngine.AccessibilityModule.dll_940F5CE4671850BC.mvfrm
Library\Bee\artifacts\mvdfrm\UnityEngine.AIModule.dll_E770FB02239122FE.mvfrm
Library\Bee\artifacts\mvdfrm\UnityEngine.AndroidJNIModule.dll_1AB56B073C3367BC.mvfrm
Library\Bee\artifacts\mvdfrm\UnityEngine.AnimationModule.dll_81E6D8364750A062.mvfrm
Library\Bee\artifacts\mvdfrm\UnityEngine.ARModule.dll_A0E3C00580AE81C7.mvfrm
Library\Bee\artifacts\mvdfrm\UnityEngine.AssetBundleModule.dll_BD39F4A185B377D0.mvfrm
Library\Bee\artifacts\mvdfrm\UnityEngine.AudioModule.dll_B27F121F10A018D4.mvfrm
Library\Bee\artifacts\mvdfrm\UnityEngine.ClothModule.dll_19676F19EABCF7B8.mvfrm
Library\Bee\artifacts\mvdfrm\UnityEngine.ClusterInputModule.dll_4BD46BC9A2466466.mvfrm
Library\Bee\artifacts\mvdfrm\UnityEngine.ClusterRendererModule.dll_181BCB79C142777B.mvfrm
Library\Bee\artifacts\mvdfrm\UnityEngine.CoreModule.dll_4806723E0AE25915.mvfrm
Library\Bee\artifacts\mvdfrm\UnityEngine.CrashReportingModule.dll_163E47F518DAEBCD.mvfrm
Library\Bee\artifacts\mvdfrm\UnityEngine.DirectorModule.dll_51400D46E7C5C472.mvfrm
Library\Bee\artifacts\mvdfrm\UnityEngine.dll_82DF0E78A9F62470.mvfrm
Library\Bee\artifacts\mvdfrm\UnityEngine.DSPGraphModule.dll_56916EB05A269593.mvfrm
Library\Bee\artifacts\mvdfrm\UnityEngine.GameCenterModule.dll_4502B522027458AD.mvfrm
Library\Bee\artifacts\mvdfrm\UnityEngine.GIModule.dll_7FAD440FBF400B18.mvfrm
Library\Bee\artifacts\mvdfrm\UnityEngine.GridModule.dll_25778E2C2336EF0C.mvfrm
Library\Bee\artifacts\mvdfrm\UnityEngine.HotReloadModule.dll_032F963C2283BBE4.mvfrm
Library\Bee\artifacts\mvdfrm\UnityEngine.ImageConversionModule.dll_840DC92A43672F6F.mvfrm
Library\Bee\artifacts\mvdfrm\UnityEngine.IMGUIModule.dll_EADEB185D6D1ACB5.mvfrm
Library\Bee\artifacts\mvdfrm\UnityEngine.InputLegacyModule.dll_4E7F0FC01DA52DC1.mvfrm
Library\Bee\artifacts\mvdfrm\UnityEngine.InputModule.dll_18F4D9CF86D83D78.mvfrm
Library\Bee\artifacts\mvdfrm\UnityEngine.JSONSerializeModule.dll_F426E6206653B146.mvfrm
Library\Bee\artifacts\mvdfrm\UnityEngine.LocalizationModule.dll_8A21361C39C2575F.mvfrm
Library\Bee\artifacts\mvdfrm\UnityEngine.ParticleSystemModule.dll_6950914186EC775B.mvfrm
Library\Bee\artifacts\mvdfrm\UnityEngine.PerformanceReportingModule.dll_0EF1EE648C3E42D4.mvfrm
Library\Bee\artifacts\mvdfrm\UnityEngine.Physics2DModule.dll_CE8CC826E84D97F7.mvfrm
Library\Bee\artifacts\mvdfrm\UnityEngine.PhysicsModule.dll_494A67EA5B33E625.mvfrm
Library\Bee\artifacts\mvdfrm\UnityEngine.ProfilerModule.dll_8386467D811F4B7F.mvfrm
Library\Bee\artifacts\mvdfrm\UnityEngine.RuntimeInitializeOnLoadManagerInitializerModule.dll_7C11CCD79FC976C0.mvfrm
Library\Bee\artifacts\mvdfrm\UnityEngine.ScreenCaptureModule.dll_0E0E93A57ABFDDA8.mvfrm
Library\Bee\artifacts\mvdfrm\UnityEngine.SharedInternalsModule.dll_081F07FFBA952ABF.mvfrm
Library\Bee\artifacts\mvdfrm\UnityEngine.SpriteMaskModule.dll_2E2F27B223E3EE27.mvfrm
Library\Bee\artifacts\mvdfrm\UnityEngine.SpriteShapeModule.dll_D69B21FC3B55AFDA.mvfrm
Library\Bee\artifacts\mvdfrm\UnityEngine.StreamingModule.dll_367BC58696D857A0.mvfrm
Library\Bee\artifacts\mvdfrm\UnityEngine.SubstanceModule.dll_1326D9CFE22B55AE.mvfrm
Library\Bee\artifacts\mvdfrm\UnityEngine.SubsystemsModule.dll_98DC8E13F22BD63A.mvfrm
Library\Bee\artifacts\mvdfrm\UnityEngine.TerrainModule.dll_6390E35930F22F13.mvfrm
Library\Bee\artifacts\mvdfrm\UnityEngine.TerrainPhysicsModule.dll_69CB3A14A02F71E8.mvfrm
Library\Bee\artifacts\mvdfrm\UnityEngine.TextCoreFontEngineModule.dll_9F38F9FC88DA8EF3.mvfrm
Library\Bee\artifacts\mvdfrm\UnityEngine.TextCoreTextEngineModule.dll_E721306E185E4811.mvfrm
Library\Bee\artifacts\mvdfrm\UnityEngine.TextRenderingModule.dll_374E05B031F75D9D.mvfrm
Library\Bee\artifacts\mvdfrm\UnityEngine.TilemapModule.dll_028D4ADA48AF101C.mvfrm
Library\Bee\artifacts\mvdfrm\UnityEngine.TLSModule.dll_36B0DF4D0EA4A5B9.mvfrm
Library\Bee\artifacts\mvdfrm\UnityEngine.UIElementsModule.dll_9D1AEF7BF5581231.mvfrm
Library\Bee\artifacts\mvdfrm\UnityEngine.UIElementsNativeModule.dll_9D74056C121FEAE8.mvfrm
Library\Bee\artifacts\mvdfrm\UnityEngine.UIModule.dll_E2E4992F7FD828AA.mvfrm
Library\Bee\artifacts\mvdfrm\UnityEngine.UmbraModule.dll_2D53BE379DC6C447.mvfrm
Library\Bee\artifacts\mvdfrm\UnityEngine.UNETModule.dll_DAACBA2757F14E8E.mvfrm
Library\Bee\artifacts\mvdfrm\UnityEngine.UnityAnalyticsModule.dll_88F0020B3313C957.mvfrm
Library\Bee\artifacts\mvdfrm\UnityEngine.UnityConnectModule.dll_B9977AC2EB46924B.mvfrm
Library\Bee\artifacts\mvdfrm\UnityEngine.UnityCurlModule.dll_B5037967B764924F.mvfrm
Library\Bee\artifacts\mvdfrm\UnityEngine.UnityTestProtocolModule.dll_B5370988EF1ACE3D.mvfrm
Library\Bee\artifacts\mvdfrm\UnityEngine.UnityWebRequestAssetBundleModule.dll_53582AC0E7C89568.mvfrm
Library\Bee\artifacts\mvdfrm\UnityEngine.UnityWebRequestAudioModule.dll_86EE424312A90D6C.mvfrm
Library\Bee\artifacts\mvdfrm\UnityEngine.UnityWebRequestModule.dll_95ACD0D44E5BC9EE.mvfrm
Library\Bee\artifacts\mvdfrm\UnityEngine.UnityWebRequestTextureModule.dll_286B570A36DEC8C1.mvfrm
Library\Bee\artifacts\mvdfrm\UnityEngine.UnityWebRequestWWWModule.dll_B1E375CA081E047D.mvfrm
Library\Bee\artifacts\mvdfrm\UnityEngine.VehiclesModule.dll_C90306C661EF940D.mvfrm
Library\Bee\artifacts\mvdfrm\UnityEngine.VFXModule.dll_B78F77BBE5120F26.mvfrm
Library\Bee\artifacts\mvdfrm\UnityEngine.VideoModule.dll_D7889689D3323479.mvfrm
Library\Bee\artifacts\mvdfrm\UnityEngine.VirtualTexturingModule.dll_C200B9DAEACE6B73.mvfrm
Library\Bee\artifacts\mvdfrm\UnityEngine.VRModule.dll_35B6BFB52192AE22.mvfrm
Library\Bee\artifacts\mvdfrm\UnityEngine.WindModule.dll_BE554D669C18D77E.mvfrm
Library\Bee\artifacts\mvdfrm\UnityEngine.XRModule.dll_687582B9AACCFB80.mvfrm